<?xml version="1.0" encoding="UTF-8" standalone="no"?>
<svg
   xmlns:dc="http://purl.org/dc/elements/1.1/"
   xmlns:cc="http://creativecommons.org/ns#"
   xmlns:rdf="http://www.w3.org/1999/02/22-rdf-syntax-ns#"
   xmlns:svg="http://www.w3.org/2000/svg"
   xmlns="http://www.w3.org/2000/svg"
   xmlns:sodipodi="http://sodipodi.sourceforge.net/DTD/sodipodi-0.dtd"
   xmlns:inkscape="http://www.inkscape.org/namespaces/inkscape"
   version="1.1"
   x="0px"
   y="0px"
   width="100px"
   height="100px"
   viewBox="0 0 100 100"
   enable-background="new 0 0 100 100"
   xml:space="preserve"
   id="svg2"
   inkscape:version="0.91 r13725"
   sodipodi:docname="application-x-iso9660-image.small.svg"
   inkscape:export-filename="C:\Users\wilkie\occam\configuration.png"
   inkscape:export-xdpi="18"
   inkscape:export-ydpi="18"><metadata
     id="metadata122"><rdf:RDF><cc:Work
         rdf:about=""><dc:format>image/svg+xml</dc:format><dc:type
           rdf:resource="http://purl.org/dc/dcmitype/StillImage" /><dc:title></dc:title></cc:Work></rdf:RDF></metadata><defs
     id="defs120" /><sodipodi:namedview
     pagecolor="#ffffff"
     bordercolor="#666666"
     borderopacity="1"
     objecttolerance="10"
     gridtolerance="10"
     guidetolerance="10"
     inkscape:pageopacity="0"
     inkscape:pageshadow="2"
     inkscape:window-width="1920"
     inkscape:window-height="1057"
     id="namedview118"
     showgrid="false"
     inkscape:zoom="6.675088"
     inkscape:cx="11.833622"
     inkscape:cy="60.906085"
     inkscape:window-x="-8"
     inkscape:window-y="1072"
     inkscape:window-maximized="1"
     inkscape:current-layer="svg2"
     inkscape:object-nodes="false" /><path
     style="clip-rule:evenodd;fill:#2da0b7;fill-opacity:1;fill-rule:evenodd"
     d="m 50,1.3984375 c -26.282897,0 -47.5878906,21.7577005 -47.5878906,48.5996095 0,7.763331 1.7920996,15.096131 4.9609375,21.605469 l 0,-5.871094 c 6.657e-4,-2.730945 2.2143673,-4.944647 4.9453121,-4.945313 l 6.46875,0 c 2.39892,0.0032 4.449774,1.727172 4.865235,4.089844 0.30355,-0.325532 0.623659,-0.636686 0.964844,-0.925781 l 0.01367,-0.01172 C 27.526031,61.504877 31.320453,60.5 35.3125,60.5 c 1.966415,0 3.892238,0.235765 5.742188,0.720703 1.717996,0.446634 3.453189,1.058623 5.21875,1.824219 1.27286,0.551377 2.244514,1.627035 2.664062,2.949219 3.535291,-3.769674 8.707583,-5.544922 14.3125,-5.544922 5.605189,0 10.779918,1.788801 14.277344,5.595703 3.504017,3.79968 5.005859,9.04974 5.005859,14.898437 0,1.697973 -0.146049,3.336848 -0.414062,4.914063 9.504986,-8.885796 15.46875,-21.660815 15.46875,-35.859375 C 97.587891,23.156138 76.279012,1.3984375 50,1.3984375 Z m 0.121094,36.5937505 c 6.450622,0 11.679687,5.33003 11.679687,11.904296 0,6.574284 -5.229065,11.904297 -11.679687,11.904297 -6.45079,0 -11.679688,-5.330013 -11.679688,-11.904297 0,-6.574266 5.228898,-11.904296 11.679688,-11.904296 z M 63.25,75.4375 c -1.490043,0 -1.581232,0.162459 -1.980469,0.693359 l -0.01172,0.01563 c -0.388683,0.512732 -0.988281,2.004645 -0.988281,4.796875 0,2.799348 0.5972,4.305382 0.980469,4.816407 0.375476,0.500634 0.457089,0.666015 1.958984,0.666015 1.516973,0 1.602129,-0.171691 1.966797,-0.65625 0.364668,-0.484558 0.970703,-1.999575 0.970703,-4.826172 0,-2.837844 -0.606067,-4.369176 -0.970703,-4.857421 C 64.811145,75.59769 64.744327,75.4375 63.25,75.4375 Z M 47.626953,94.261719 c -0.787551,1.44034 -1.824291,2.736343 -3.107422,3.759765 l -0.002,0.002 c -0.0938,0.07511 -0.195567,0.136632 -0.291016,0.208984 1.89386,0.234076 3.817724,0.36914 5.773438,0.36914 0.734835,0 1.464706,-0.02494 2.191406,-0.05859 -1.20153,-0.751307 -2.306473,-1.645327 -3.279297,-2.699219 -0.463416,-0.502034 -0.890232,-1.031416 -1.285156,-1.582031 z"
     id="path6287-8"
     inkscape:connector-curvature="0"
     sodipodi:nodetypes="sscccccccscccscscssssssssccsssssssccccscsc" /><path
     d="m 12.318209,96.236763 0,-30.505007 6.46823,0 0,30.505007 -6.46823,0 z"
     style="font-style:normal;font-variant:normal;font-weight:bold;font-stretch:normal;font-size:medium;line-height:1.25;font-family:'Open Sans';-inkscape-font-specification:'Open Sans Bold';letter-spacing:0px;word-spacing:0px;fill:#2da0b7;fill-opacity:1;stroke:none;stroke-width:0.80709034"
     id="path15323"
     inkscape:connector-curvature="0" /><path
     d="m 44.513302,87.765468 q 0,4.131321 -2.983731,6.509961 -2.962867,2.378639 -8.262643,2.378639 -4.88247,0 -8.638216,-1.836143 l 0,-6.009194 q 3.088058,1.377107 5.216314,1.940469 2.149122,0.563362 3.922669,0.563362 2.128256,0 3.25498,-0.813745 1.147589,-0.813745 1.147589,-2.42037 0,-0.897206 -0.500766,-1.585759 -0.500766,-0.709419 -1.481433,-1.356242 -0.959802,-0.646823 -3.943534,-2.065661 -2.795945,-1.314511 -4.193917,-2.524696 -1.397972,-1.210185 -2.232583,-2.81681 -0.83461,-1.606625 -0.83461,-3.755746 0,-4.04786 2.733349,-6.363904 2.754214,-2.316043 7.594954,-2.316043 2.378639,0 4.527761,0.563362 2.169986,0.563362 4.527761,1.585759 l -2.086526,5.028527 q -2.441235,-1.001532 -4.04786,-1.397972 -1.58576,-0.39644 -3.129789,-0.39644 -1.836143,0 -2.81681,0.855476 -0.980667,0.855475 -0.980667,2.232582 0,0.855476 0.39644,1.502299 0.39644,0.625958 1.251916,1.23105 0.87634,0.584227 4.110455,2.128256 4.277378,2.044796 5.863138,4.110456 1.585759,2.044795 1.585759,5.028527 z"
     style="font-style:normal;font-variant:normal;font-weight:bold;font-stretch:normal;font-size:medium;line-height:1.25;font-family:'Open Sans';-inkscape-font-specification:'Open Sans Bold';letter-spacing:0px;word-spacing:0px;fill:#2da0b7;fill-opacity:1;stroke:none;stroke-width:0.80709034"
     id="path15325"
     inkscape:connector-curvature="0" /><path
     d="m 77.730795,80.942529 q 0,7.574089 -3.755747,11.642814 -3.755746,4.068725 -10.766473,4.068725 -7.010726,0 -10.766473,-4.068725 -3.755746,-4.068725 -3.755746,-11.684545 0,-7.615819 3.755746,-11.621948 3.776612,-4.026995 10.808204,-4.026995 7.031592,0 10.745608,4.04786 3.734881,4.04786 3.734881,11.642814 z m -22.26323,0 q 0,5.111988 1.940469,7.69928 1.940469,2.587292 5.800541,2.587292 7.741011,0 7.741011,-10.286572 0,-10.307437 -7.69928,-10.307437 -3.860073,0 -5.821407,2.608157 -1.961334,2.587292 -1.961334,7.69928 z"
     style="font-style:normal;font-variant:normal;font-weight:bold;font-stretch:normal;font-size:medium;line-height:1.25;font-family:'Open Sans';-inkscape-font-specification:'Open Sans Bold';letter-spacing:0px;word-spacing:0px;fill:#2da0b7;fill-opacity:1;stroke:none;stroke-width:0.80709034"
     id="path15327"
     inkscape:connector-curvature="0" /></svg>