<?xml version="1.0" encoding="UTF-8" standalone="no"?>
<svg
   xmlns:dc="http://purl.org/dc/elements/1.1/"
   xmlns:cc="http://creativecommons.org/ns#"
   xmlns:rdf="http://www.w3.org/1999/02/22-rdf-syntax-ns#"
   xmlns:svg="http://www.w3.org/2000/svg"
   xmlns="http://www.w3.org/2000/svg"
   xmlns:sodipodi="http://sodipodi.sourceforge.net/DTD/sodipodi-0.dtd"
   xmlns:inkscape="http://www.inkscape.org/namespaces/inkscape"
   width="64px"
   height="64px"
   id="svg4864"
   version="1.1"
   inkscape:version="1.0.1 (3bc2e813f5, 2020-09-07)"
   sodipodi:docname="associate.svg"
   inkscape:export-filename="C:\Users\wilkie\occam\object_large.png"
   inkscape:export-xdpi="135"
   inkscape:export-ydpi="135">
  <defs
     id="defs4866">
    <inkscape:path-effect
       effect="bspline"
       id="path-effect884"
       is_visible="true"
       lpeversion="1"
       weight="33.333333"
       steps="2"
       helper_size="0"
       apply_no_weight="true"
       apply_with_weight="true"
       only_selected="false" />
    <inkscape:path-effect
       effect="powerstroke"
       id="path-effect861"
       is_visible="true"
       lpeversion="1"
       offset_points="0,0.5"
       sort_points="true"
       interpolator_type="CubicBezierJohan"
       interpolator_beta="0.2"
       start_linecap_type="zerowidth"
       linejoin_type="extrp_arc"
       miter_limit="4"
       scale_width="1"
       end_linecap_type="zerowidth" />
    <inkscape:path-effect
       effect="powerstroke"
       id="path-effect855"
       is_visible="true"
       lpeversion="1"
       offset_points="2,0.5"
       sort_points="true"
       interpolator_type="CubicBezierJohan"
       interpolator_beta="0.2"
       start_linecap_type="zerowidth"
       linejoin_type="extrp_arc"
       miter_limit="4"
       scale_width="1"
       end_linecap_type="zerowidth" />
  </defs>
  <sodipodi:namedview
     id="base"
     pagecolor="#ffffff"
     bordercolor="#666666"
     borderopacity="1.0"
     inkscape:pageopacity="0.0"
     inkscape:pageshadow="2"
     inkscape:zoom="11.313708"
     inkscape:cx="8.9980444"
     inkscape:cy="32.522845"
     inkscape:current-layer="layer1"
     showgrid="true"
     inkscape:document-units="px"
     inkscape:grid-bbox="true"
     inkscape:window-width="1920"
     inkscape:window-height="1057"
     inkscape:window-x="-8"
     inkscape:window-y="1064"
     inkscape:window-maximized="1"
     inkscape:document-rotation="0" />
  <metadata
     id="metadata4869">
    <rdf:RDF>
      <cc:Work
         rdf:about="">
        <dc:format>image/svg+xml</dc:format>
        <dc:type
           rdf:resource="http://purl.org/dc/dcmitype/StillImage" />
      </cc:Work>
    </rdf:RDF>
  </metadata>
  <g
     id="layer1"
     inkscape:label="Layer 1"
     inkscape:groupmode="layer">
    <path
       id="path931"
       style="color:#000000;font-style:normal;font-variant:normal;font-weight:normal;font-stretch:normal;font-size:medium;line-height:normal;font-family:sans-serif;font-variant-ligatures:normal;font-variant-position:normal;font-variant-caps:normal;font-variant-numeric:normal;font-variant-alternates:normal;font-variant-east-asian:normal;font-feature-settings:normal;font-variation-settings:normal;text-indent:0;text-align:start;text-decoration:none;text-decoration-line:none;text-decoration-style:solid;text-decoration-color:#000000;letter-spacing:normal;word-spacing:normal;text-transform:none;writing-mode:lr-tb;direction:ltr;text-orientation:mixed;dominant-baseline:auto;baseline-shift:baseline;text-anchor:start;white-space:normal;shape-padding:0;shape-margin:0;inline-size:0;clip-rule:nonzero;display:inline;overflow:visible;visibility:visible;isolation:auto;mix-blend-mode:normal;color-interpolation:sRGB;color-interpolation-filters:linearRGB;solid-color:#000000;solid-opacity:1;vector-effect:none;fill:#2da0b7;fill-opacity:1;fill-rule:nonzero;stroke:none;stroke-width:5.61115;stroke-linecap:round;stroke-linejoin:miter;stroke-miterlimit:4;stroke-dasharray:none;stroke-dashoffset:0;stroke-opacity:1;color-rendering:auto;image-rendering:auto;shape-rendering:auto;text-rendering:auto;enable-background:accumulate;stop-color:#000000;stop-opacity:1;opacity:1"
       d="M 56.984375 20.345703 A 2.8055749 2.8055749 0 0 0 56.525391 20.396484 C 51.280702 21.420474 47.565447 23.788626 45.136719 26.828125 C 42.707991 29.867624 41.52742 33.375093 40.503906 36.736328 C 38.456878 43.458798 37.233264 49.386206 30.445312 53.054688 C 23.778232 56.657845 16.490886 54.578219 12.601562 50.144531 C 10.656902 47.927687 9.5847072 45.204181 9.7617188 42.169922 C 9.9236125 39.394804 11.157198 36.24949 14.162109 32.933594 A 11.631239 14.410664 45 0 1 11.751953 31.185547 A 11.631239 14.410664 45 0 1 10.138672 29.029297 C 6.3505285 33.169068 4.4076086 37.600069 4.1601562 41.841797 C 3.8928546 46.423774 5.5811152 50.649644 8.3847656 53.845703 C 13.992066 60.237822 24.148414 62.835208 33.113281 57.990234 C 41.957277 53.210584 43.913826 44.79879 45.871094 38.371094 C 46.849728 35.157246 47.878316 32.386466 49.521484 30.330078 C 51.164653 28.27369 53.38488 26.727194 57.599609 25.904297 A 2.8055749 2.8055749 0 0 0 59.816406 22.613281 A 2.8055749 2.8055749 0 0 0 56.984375 20.345703 z " />
    <path
       id="path867"
       style="fill:#2da0b7;fill-opacity:1;stroke-width:1.81707"
       d="M 15.010991,11.603955 A 11.631239,14.410664 45 0 0 13.045639,30.018362 11.631239,14.410664 45 0 0 31.460046,28.053014 Z" />
    <rect
       style="fill:#2da0b7;fill-opacity:1;stroke-width:1.63245"
       id="rect874"
       width="2.6527388"
       height="14.079921"
       x="22.594627"
       y="-18.419487"
       ry="1.3263694"
       transform="rotate(45)" />
    <rect
       style="fill:#2da0b7;fill-opacity:1;stroke-width:1.63245"
       id="rect878"
       width="2.6527388"
       height="14.079921"
       x="35.960346"
       y="-18.419487"
       ry="1.3263694"
       transform="rotate(45)" />
    <rect
       style="fill:#2da0b7;fill-opacity:1;stroke-width:1.70986"
       id="rect880"
       width="23.05842"
       height="1.8365114"
       x="18.819609"
       y="-5.3807902"
       ry="0.91825569"
       transform="rotate(45)" />
    <path
       style="fill:none;stroke:#2da0b7;stroke-width:5.61115;stroke-linecap:round;stroke-linejoin:miter;stroke-miterlimit:4;stroke-dasharray:none;stroke-opacity:1"
       d="m -52.541933,31.605935 c -16.15227,16.15227 3.10114,33.951814 18.733088,25.503683 15.631948,-8.448131 6.365149,-28.677509 25.2839847,-32.371284"
       id="path886-4"
       sodipodi:nodetypes="czc" />
    <path
       id="path888-4"
       style="fill:#ffffff;fill-opacity:1;stroke-width:1.81707"
       d="m -51.869477,14.359424 a 11.631239,14.410664 45 0 0 -1.965352,18.414407 11.631239,14.410664 45 0 0 18.414407,-1.965348 z" />
    <path
       id="path867-3"
       style="fill:#2da0b7;fill-opacity:1;stroke-width:1.81707"
       d="m -50.576581,13.191528 a 11.631239,14.410664 45 0 0 -1.965352,18.414407 11.631239,14.410664 45 0 0 18.414407,-1.965348 z" />
    <rect
       style="fill:#2da0b7;fill-opacity:1;stroke-width:1.63245"
       id="rect874-3"
       width="2.6527388"
       height="14.079921"
       x="-22.660206"
       y="29.080515"
       ry="1.3263694"
       transform="rotate(45)" />
    <rect
       style="fill:#2da0b7;fill-opacity:1;stroke-width:1.63245"
       id="rect878-3"
       width="2.6527388"
       height="14.079921"
       x="-9.294488"
       y="29.080515"
       ry="1.3263694"
       transform="rotate(45)" />
    <rect
       style="fill:#2da0b7;fill-opacity:1;stroke-width:1.70986"
       id="rect880-7"
       width="23.05842"
       height="1.8365114"
       x="-26.435223"
       y="42.119209"
       ry="0.91825569"
       transform="rotate(45)" />
  </g>
</svg>
