<?xml version="1.0" encoding="UTF-8" standalone="no"?>
<!-- Created with Inkscape (http://www.inkscape.org/) -->

<svg
   width="64px"
   height="64px"
   id="svg7789"
   version="1.1"
   inkscape:version="1.1.1 (3bf5ae0d25, 2021-09-20)"
   inkscape:export-filename="Z:\projects\occam\Large-Icons\error_large.png"
   inkscape:export-xdpi="135"
   inkscape:export-ydpi="135"
   sodipodi:docname="create-metadata.svg"
   xmlns:inkscape="http://www.inkscape.org/namespaces/inkscape"
   xmlns:sodipodi="http://sodipodi.sourceforge.net/DTD/sodipodi-0.dtd"
   xmlns="http://www.w3.org/2000/svg"
   xmlns:svg="http://www.w3.org/2000/svg"
   xmlns:rdf="http://www.w3.org/1999/02/22-rdf-syntax-ns#"
   xmlns:cc="http://creativecommons.org/ns#"
   xmlns:dc="http://purl.org/dc/elements/1.1/">
  <defs
     id="defs7791" />
  <sodipodi:namedview
     id="base"
     pagecolor="#ffffff"
     bordercolor="#666666"
     borderopacity="1.0"
     inkscape:pageopacity="0.0"
     inkscape:pageshadow="2"
     inkscape:zoom="12.953125"
     inkscape:cx="32"
     inkscape:cy="32.154403"
     inkscape:current-layer="layer1"
     showgrid="true"
     inkscape:document-units="px"
     inkscape:grid-bbox="true"
     inkscape:window-width="1920"
     inkscape:window-height="1051"
     inkscape:window-x="-9"
     inkscape:window-y="-9"
     inkscape:window-maximized="1"
     inkscape:snap-global="false"
     inkscape:pagecheckerboard="0" />
  <metadata
     id="metadata7794">
    <rdf:RDF>
      <cc:Work
         rdf:about="">
        <dc:format>image/svg+xml</dc:format>
        <dc:type
           rdf:resource="http://purl.org/dc/dcmitype/StillImage" />
      </cc:Work>
    </rdf:RDF>
  </metadata>
  <g
     id="layer1"
     inkscape:label="Layer 1"
     inkscape:groupmode="layer">
    <path
       id="path784"
       style="fill:#2da0b7;fill-opacity:1;stroke-width:109.371;stroke-linecap:round;stroke-linejoin:round"
       inkscape:transform-center-x="-2.2711127"
       inkscape:transform-center-y="-2.2711139"
       d="M 40.910156 4.2285156 C 40.04086 4.22817 39.172397 4.5619777 38.505859 5.2285156 L 26.103516 17.630859 L 23.833984 19.900391 L 6.6191406 37.115234 L 4.2285156 59.771484 L 26.884766 57.380859 L 37.574219 46.691406 A 13.700194 13.700194 0 0 1 50.449219 33.816406 L 58.771484 25.494141 C 60.104559 24.161065 60.102623 22.016669 58.769531 20.683594 L 43.316406 5.2304688 C 42.649869 4.5639315 41.779452 4.2288612 40.910156 4.2285156 z M 39.414062 14.359375 C 40.181534 14.359375 40.947397 14.652475 41.535156 15.240234 C 42.710674 16.415753 42.710693 18.308857 41.535156 19.484375 L 27.033203 33.986328 C 25.857685 35.161846 23.964581 35.16378 22.789062 33.988281 C 21.613544 32.812762 21.613545 30.917705 22.789062 29.742188 L 37.291016 15.240234 C 37.878775 14.652475 38.646591 14.359375 39.414062 14.359375 z M 49.361328 18.859375 C 50.128454 18.859027 50.894662 19.152485 51.482422 19.740234 C 52.65794 20.915753 52.65794 22.810809 51.482422 23.986328 L 34.257812 41.210938 C 33.082293 42.386455 31.187237 42.386455 30.011719 41.210938 C 28.836201 40.03542 28.838135 38.142316 30.013672 36.966797 L 47.238281 19.742188 C 47.826041 19.154429 48.594202 18.859723 49.361328 18.859375 z M 16.201172 43.021484 A 4.1750674 4.1750674 0 0 1 19.806641 44.193359 A 4.1750674 4.1750674 0 0 1 19.808594 50.097656 A 4.1750674 4.1750674 0 0 1 13.902344 50.097656 A 4.1750674 4.1750674 0 0 1 13.902344 44.193359 L 13.902344 44.191406 A 4.1750674 4.1750674 0 0 1 16.201172 43.021484 z " />
    <path
       style="fill:#2da0b7;fill-opacity:1;stroke:none;stroke-width:0.706436;stroke-miterlimit:4;stroke-dasharray:4.23862, 4.23862;stroke-dashoffset:0;stroke-opacity:1"
       d="M 51.22019,36.24041 A 11.221662,11.221662 0 0 0 39.998282,47.462317 11.221662,11.221662 0 0 0 51.22019,58.684224 11.221662,11.221662 0 0 0 62.440023,47.462317 11.221662,11.221662 0 0 0 51.22019,36.24041 Z m 0,1.876539 a 9.3449232,9.3449232 0 0 1 9.343295,9.345368 9.3449232,9.3449232 0 0 1 -9.343295,9.345369 9.3449232,9.3449232 0 0 1 -9.345368,-9.345369 9.3449232,9.3449232 0 0 1 9.345368,-9.345368 z"
       id="circle3725" />
    <rect
       style="fill:#2da0b7;fill-opacity:1;stroke:none;stroke-width:0.565175;stroke-miterlimit:4;stroke-dasharray:3.39105, 3.39105;stroke-dashoffset:0;stroke-opacity:1"
       id="rect3719"
       width="13.765861"
       height="2.8928258"
       x="44.336243"
       y="46.016369"
       ry="1.4464129" />
    <rect
       ry="1.4464129"
       y="-52.665588"
       x="40.579853"
       height="2.8928258"
       width="13.765861"
       id="rect3721"
       style="fill:#2da0b7;fill-opacity:1;stroke:none;stroke-width:0.565175;stroke-miterlimit:4;stroke-dasharray:3.39105, 3.39105;stroke-dashoffset:0;stroke-opacity:1"
       transform="rotate(90)" />
  </g>
</svg>
