<?xml version="1.0" encoding="UTF-8" standalone="no"?>
<svg
   version="1.1"
   x="0px"
   y="0px"
   width="100px"
   height="100px"
   viewBox="0 0 100 100"
   enable-background="new 0 0 100 100"
   xml:space="preserve"
   id="svg2"
   inkscape:version="1.1.1 (3bf5ae0d25, 2021-09-20)"
   sodipodi:docname="image.svg"
   inkscape:export-filename="C:\Users\wilkie\occam\configuration.png"
   inkscape:export-xdpi="18"
   inkscape:export-ydpi="18"
   xmlns:inkscape="http://www.inkscape.org/namespaces/inkscape"
   xmlns:sodipodi="http://sodipodi.sourceforge.net/DTD/sodipodi-0.dtd"
   xmlns="http://www.w3.org/2000/svg"
   xmlns:svg="http://www.w3.org/2000/svg"
   xmlns:rdf="http://www.w3.org/1999/02/22-rdf-syntax-ns#"
   xmlns:cc="http://creativecommons.org/ns#"
   xmlns:dc="http://purl.org/dc/elements/1.1/"><metadata
   id="metadata122"><rdf:RDF><cc:Work
       rdf:about=""><dc:format>image/svg+xml</dc:format><dc:type
         rdf:resource="http://purl.org/dc/dcmitype/StillImage" /></cc:Work></rdf:RDF></metadata><defs
   id="defs120" /><sodipodi:namedview
   pagecolor="#ffffff"
   bordercolor="#666666"
   borderopacity="1"
   objecttolerance="10"
   gridtolerance="10"
   guidetolerance="10"
   inkscape:pageopacity="0"
   inkscape:pageshadow="2"
   inkscape:window-width="1920"
   inkscape:window-height="1051"
   id="namedview118"
   showgrid="false"
   inkscape:zoom="4.72"
   inkscape:cx="70.65678"
   inkscape:cy="20.021186"
   inkscape:window-x="-9"
   inkscape:window-y="-9"
   inkscape:window-maximized="1"
   inkscape:current-layer="svg2"
   inkscape:object-nodes="false"
   inkscape:pagecheckerboard="0" /><path
   style="fill:#2da0b7;fill-opacity:1;fill-rule:evenodd;stroke:none;stroke-width:1px;stroke-linecap:butt;stroke-linejoin:miter;stroke-opacity:1"
   d="M 49.789063,36.555665 C 38.718705,51.586194 25.973364,62.071982 12.751953,71.264649 28.413358,65.510023 41.549772,58.12307 52.955078,49.56543 c 0.526279,-0.394592 1.160964,-0.618198 1.81836,-0.640625 0.537869,-0.01852 1.071775,0.09834 1.552734,0.339844 14.014449,7.048617 24.906719,11.924406 33.580078,15.300781 V 61.379883 C 76.794424,55.649216 63.509662,48.218537 49.789063,36.555665 Z"
   id="path5839"
   inkscape:connector-curvature="0"
   sodipodi:nodetypes="cccccccc" />
<circle
   style="opacity:1;fill:#2da0b7;fill-opacity:1;stroke:none"
   id="path5835"
   cx="22.972254"
   cy="29.507339"
   r="9.8875103" /><path
   style="color:#000000;font-style:normal;font-variant:normal;font-weight:normal;font-stretch:normal;font-size:medium;line-height:normal;font-family:sans-serif;text-indent:0;text-align:start;text-decoration:none;text-decoration-line:none;text-decoration-style:solid;text-decoration-color:#000000;letter-spacing:normal;word-spacing:normal;text-transform:none;writing-mode:lr-tb;direction:ltr;baseline-shift:baseline;text-anchor:start;white-space:normal;clip-rule:nonzero;display:inline;overflow:visible;visibility:visible;opacity:1;isolation:auto;mix-blend-mode:normal;color-interpolation:sRGB;color-interpolation-filters:linearRGB;solid-color:#000000;solid-opacity:1;fill:#2da0b7;fill-opacity:1;fill-rule:nonzero;stroke:none;stroke-width:3.82354;stroke-linecap:butt;stroke-linejoin:miter;stroke-miterlimit:4;stroke-dasharray:none;stroke-dashoffset:0;stroke-opacity:1;color-rendering:auto;image-rendering:auto;shape-rendering:auto;text-rendering:auto;enable-background:accumulate"
   d="m 2.6699221,9.3388673 c 0,27.1074217 0,54.2148437 0,81.3222657 H 12.935547 61.023438 97.330078 V 9.3388673 c -31.553385,0 -63.106771,0 -94.6601559,0 z M 6.4921878,13.163086 H 93.50586 V 86.836915 H 61.023438 12.935547 6.4921878 Z"
   id="rect962"
   inkscape:connector-curvature="0"
   sodipodi:nodetypes="cccccccccccccc" /><path
   style="fill:#2da0b7;fill-opacity:1;fill-rule:evenodd;stroke:none;stroke-width:1px;stroke-linecap:butt;stroke-linejoin:miter;stroke-opacity:1"
   d="M 54.882813,52.135743 C 41.350036,62.289669 27.41434,70.842312 7.8945315,77.004883 45.610844,86.108885 72.396274,85.45803 96.378906,82.032227 V 70.375977 C 86.511195,67.036592 73.305981,61.401742 54.882813,52.135743 Z"
   id="path5837" /></svg>
