<?xml version="1.0" encoding="UTF-8" standalone="no"?>
<!-- Created with Inkscape (http://www.inkscape.org/) -->

<svg
   xmlns:dc="http://purl.org/dc/elements/1.1/"
   xmlns:cc="http://creativecommons.org/ns#"
   xmlns:rdf="http://www.w3.org/1999/02/22-rdf-syntax-ns#"
   xmlns:svg="http://www.w3.org/2000/svg"
   xmlns="http://www.w3.org/2000/svg"
   xmlns:sodipodi="http://sodipodi.sourceforge.net/DTD/sodipodi-0.dtd"
   xmlns:inkscape="http://www.inkscape.org/namespaces/inkscape"
   width="152.39999mm"
   height="179.43932mm"
   viewBox="0 0 539.99998 635.8086"
   id="svg4737"
   version="1.1"
   inkscape:version="0.91 r13725"
   sodipodi:docname="trust.svg">
  <defs
     id="defs4739" />
  <sodipodi:namedview
     id="base"
     pagecolor="#ffffff"
     bordercolor="#666666"
     borderopacity="1.0"
     inkscape:pageopacity="0.0"
     inkscape:pageshadow="2"
     inkscape:zoom="0.125"
     inkscape:cx="-2380.806"
     inkscape:cy="964.39634"
     inkscape:document-units="px"
     inkscape:current-layer="layer1"
     showgrid="false"
     inkscape:window-width="1680"
     inkscape:window-height="1027"
     inkscape:window-x="-8"
     inkscape:window-y="-8"
     inkscape:window-maximized="1"
     fit-margin-top="0"
     fit-margin-left="0"
     fit-margin-right="0"
     fit-margin-bottom="0" />
  <metadata
     id="metadata4742">
    <rdf:RDF>
      <cc:Work
         rdf:about="">
        <dc:format>image/svg+xml</dc:format>
        <dc:type
           rdf:resource="http://purl.org/dc/dcmitype/StillImage" />
        <dc:title></dc:title>
      </cc:Work>
    </rdf:RDF>
  </metadata>
  <g
     inkscape:label="Layer 1"
     inkscape:groupmode="layer"
     id="layer1"
     transform="translate(-92.039062,-83.919922)">
    <path
       style="fill:#00aad4;fill-opacity:1;fill-rule:evenodd;stroke:none;stroke-width:1px;stroke-linecap:butt;stroke-linejoin:miter;stroke-opacity:1"
       d="m -1147.9475,-600.72405 0,406.0672 c 7.6597,-76.76056 -1.1005,-249.65612 37.3959,-374.48419 -15.3397,-2.63779 -27.1524,-14.957 -37.3959,-31.58301 z"
       id="path5289"
       inkscape:connector-curvature="0"
       sodipodi:nodetypes="cccc" />
    <path
       style="fill:#004a4a;fill-opacity:1;fill-rule:evenodd;stroke:none;stroke-width:1px;stroke-linecap:butt;stroke-linejoin:miter;stroke-opacity:1"
       d="m -1427.5517,-691.96819 c 47.7602,0 255.9868,-62.37812 270,-86.64976 15.0687,23.44014 212.4147,90.07425 270,90.07425 0,218.53945 -145.9984,474.14067 -270,545.733 -128.2088,-74.02141 -270,-334.3287 -270,-549.15749 z"
       id="path5285"
       inkscape:connector-curvature="0"
       sodipodi:nodetypes="ccccc" />
    <path
       style="fill:#00aad4;fill-rule:evenodd;stroke:none;stroke-width:1px;stroke-linecap:butt;stroke-linejoin:miter;stroke-opacity:1"
       d="m -1283.1459,-666.39658 c -59.4062,20.17242 -75.7668,17.16644 -106.3397,21.81328 21.1588,244.30682 174.6142,431.63088 215.4061,458.98779 -44.4234,-56.26667 -133.8746,-294.32104 -109.0664,-480.80107 z"
       id="path5287"
       inkscape:connector-curvature="0"
       sodipodi:nodetypes="cccc" />
    <path
       style="fill:#004a4a;fill-opacity:1;fill-rule:evenodd;stroke:none;stroke-width:1px;stroke-linecap:butt;stroke-linejoin:miter;stroke-opacity:1"
       d="m 362.03906,115.91992 c -12.60264,21.82848 -157.57886,100.76905 -242.82201,77.92823 0,193.20429 127.51857,427.30989 242.82201,493.88037 C 473.55875,623.34262 604.86107,393.46877 604.86107,196.92734 531.65225,216.54358 375.59095,137.0006 362.03906,115.91992 Z m -98.70441,120.91039 c -17.62369,132.47498 45.92204,301.58808 77.48032,341.5598 -28.97847,-19.4343 -137.99202,-152.50875 -153.02318,-326.06373 21.71891,-3.30111 33.34084,-1.16562 75.54286,-15.49607 z"
       id="path5285-1"
       inkscape:connector-curvature="0" />
    <path
       style="fill:#004a4a;fill-opacity:1;fill-rule:evenodd;stroke:none;stroke-width:1px;stroke-linecap:butt;stroke-linejoin:miter;stroke-opacity:1"
       d="m 599.36035,-843.84022 c 94.78403,25.3973 255.98684,-62.37812 270.00004,-86.64976 15.0687,23.44014 188.59721,111.88605 270.00001,90.07425 0,218.53945 -145.99841,474.14067 -270.00001,545.733 -128.20884,-74.02141 -270.00004,-334.3287 -270.00004,-549.15749 z"
       id="path5285-1-7"
       inkscape:connector-curvature="0"
       sodipodi:nodetypes="ccccc" />
    <path
       style="fill:#00aad4;fill-rule:evenodd;stroke:none;stroke-width:1px;stroke-linecap:butt;stroke-linejoin:miter;stroke-opacity:1"
       d="m 759.60893,-796.04696 c -46.92551,15.93439 -59.8489,13.55993 -83.99871,17.23052 16.71353,192.98022 137.9294,340.94923 170.1513,362.55871 -35.09045,-44.44557 -105.74882,-232.48692 -86.15259,-379.78923 z"
       id="path5287-5-6"
       inkscape:connector-curvature="0"
       sodipodi:nodetypes="cccc" />
  </g>
</svg>
