<?xml version="1.0" encoding="UTF-8" standalone="no"?>
<svg
   xmlns:dc="http://purl.org/dc/elements/1.1/"
   xmlns:cc="http://creativecommons.org/ns#"
   xmlns:rdf="http://www.w3.org/1999/02/22-rdf-syntax-ns#"
   xmlns:svg="http://www.w3.org/2000/svg"
   xmlns="http://www.w3.org/2000/svg"
   xmlns:sodipodi="http://sodipodi.sourceforge.net/DTD/sodipodi-0.dtd"
   xmlns:inkscape="http://www.inkscape.org/namespaces/inkscape"
   width="36.5"
   height="22"
   viewBox="0 0 36.5 22"
   version="1.1"
   id="svg2"
   inkscape:version="0.91 r13725"
   sodipodi:docname="upload_file.svg">
  <metadata
     id="metadata14">
    <rdf:RDF>
      <cc:Work
         rdf:about="">
        <dc:format>image/svg+xml</dc:format>
        <dc:type
           rdf:resource="http://purl.org/dc/dcmitype/StillImage" />
        <dc:title>album_collection</dc:title>
      </cc:Work>
    </rdf:RDF>
  </metadata>
  <sodipodi:namedview
     pagecolor="#ffffff"
     bordercolor="#666666"
     borderopacity="1"
     objecttolerance="10"
     gridtolerance="10"
     guidetolerance="10"
     inkscape:pageopacity="0"
     inkscape:pageshadow="2"
     inkscape:window-width="1920"
     inkscape:window-height="1057"
     id="namedview12"
     showgrid="false"
     inkscape:zoom="22.627417"
     inkscape:cx="24.464379"
     inkscape:cy="11.057933"
     inkscape:window-x="-8"
     inkscape:window-y="1072"
     inkscape:window-maximized="1"
     inkscape:current-layer="svg2" />
  <title
     id="title4">album_collection</title>
  <description
     id="description6">Created with Sketch (http://www.bohemiancoding.com/sketch)</description>
  <defs
     id="defs8" />
  <path
     style="color:#000000;font-style:normal;font-variant:normal;font-weight:normal;font-stretch:normal;font-size:medium;line-height:normal;font-family:sans-serif;text-indent:0;text-align:start;text-decoration:none;text-decoration-line:none;text-decoration-style:solid;text-decoration-color:#000000;letter-spacing:normal;word-spacing:normal;text-transform:none;direction:ltr;writing-mode:lr-tb;baseline-shift:baseline;text-anchor:start;white-space:normal;clip-rule:nonzero;display:inline;overflow:visible;visibility:visible;opacity:1;isolation:auto;mix-blend-mode:normal;color-interpolation:sRGB;color-interpolation-filters:linearRGB;solid-color:#000000;solid-opacity:1;fill:#2da0b7;fill-opacity:1;fill-rule:nonzero;stroke:none;stroke-width:3.84708214;stroke-linecap:butt;stroke-linejoin:miter;stroke-miterlimit:4;stroke-dasharray:none;stroke-dashoffset:0;stroke-opacity:1;color-rendering:auto;image-rendering:auto;shape-rendering:auto;text-rendering:auto;enable-background:accumulate"
     d="M 4.8729342,0.24291201 C 3.3553713,1.7411877 1.799304,3.3157062 0.4976636,4.6177519 l 0,0.4514305 4.9953431,0 0,-4.82627039 z m 1.0453272,0 0,1.28477419 9.7993016,0 c 7.02e-4,5.4292163 0,13.5156798 0,18.9446268 l -13.9351248,0 c 0,-4.222417 -1.363e-4,-9.85388 0,-14.9778761 l -1.2847742,0 0,16.2223141 0,0.04034 0.040338,0 16.423998,0 0.04034,0 0,-0.04034 0,-21.43350222 0,-0.0403366 -0.04034,0 z m -1.3414176,1.60103289 0,2.2987763 -2.298776,0 z"
     id="rect962-5"
     inkscape:connector-curvature="0"
     sodipodi:nodetypes="ccccccccccccccccccccccccccc" />
  <path
     style="opacity:1;fill:#2da0b7;fill-opacity:1;stroke:none;stroke-width:1;stroke-miterlimit:4;stroke-dasharray:none;stroke-opacity:1"
     d="m 28.59375,3.416992 a 7.5821066,7.5821066 0 0 0 -1.544922,0.1699219 c 0.359251,0.1145421 0.712132,0.2586254 1.052734,0.4472656 2.440185,1.3514796 3.693269,4.0212834 3.851563,7.3359375 l 2.708984,0.08594 -3.412109,5.501954 -3.056641,-5.705078 2.578125,0.08008 C 30.661926,9.829298 30.351279,8.4614144 29.390625,7.4599608 28.184058,6.2021462 26.174473,5.5399048 24.445312,5.7587889 c -0.57973,0.073385 -1.174374,0.2502123 -1.753906,0.4921875 a 7.5821066,7.5821066 0 0 0 -1.679687,4.7499996 7.5821066,7.5821066 0 0 0 7.582031,7.582032 7.5821066,7.5821066 0 0 0 7.583984,-7.582032 7.5821066,7.5821066 0 0 0 -7.583984,-7.583984 z"
     id="path6980"
     inkscape:connector-curvature="0" />
</svg>
