<?xml version="1.0" encoding="UTF-8" standalone="no"?>
<svg
   xmlns:dc="http://purl.org/dc/elements/1.1/"
   xmlns:cc="http://creativecommons.org/ns#"
   xmlns:rdf="http://www.w3.org/1999/02/22-rdf-syntax-ns#"
   xmlns:svg="http://www.w3.org/2000/svg"
   xmlns="http://www.w3.org/2000/svg"
   xmlns:sodipodi="http://sodipodi.sourceforge.net/DTD/sodipodi-0.dtd"
   xmlns:inkscape="http://www.inkscape.org/namespaces/inkscape"
   version="1.1"
   id="Sprocket"
   x="0px"
   y="0px"
   width="100px"
   height="100px"
   viewBox="0 0 100 100"
   enable-background="new 0 0 100 100"
   xml:space="preserve"
   inkscape:version="0.48.4 r9939"
   sodipodi:docname="benchmark_large.svg"
   inkscape:export-filename="C:\Users\wilkie\occam\benchmark_large.png"
   inkscape:export-xdpi="86.400002"
   inkscape:export-ydpi="86.400002"><metadata
   id="metadata11"><rdf:RDF><cc:Work
       rdf:about=""><dc:format>image/svg+xml</dc:format><dc:type
         rdf:resource="http://purl.org/dc/dcmitype/StillImage" /><dc:title></dc:title></cc:Work></rdf:RDF></metadata><defs
   id="defs9" /><sodipodi:namedview
   pagecolor="#ffffff"
   bordercolor="#666666"
   borderopacity="1"
   objecttolerance="10"
   gridtolerance="10"
   guidetolerance="10"
   inkscape:pageopacity="0"
   inkscape:pageshadow="2"
   inkscape:window-width="1920"
   inkscape:window-height="1058"
   id="namedview7"
   showgrid="false"
   inkscape:zoom="1"
   inkscape:cx="151.99153"
   inkscape:cy="41.323359"
   inkscape:window-x="-8"
   inkscape:window-y="-8"
   inkscape:window-maximized="1"
   inkscape:current-layer="Sprocket" />
<path
   style="fill:#237d8d;fill-opacity:1"
   d="M 39.25 6.9375 C 39.186117 6.9404486 39.105568 6.9523218 39.03125 6.96875 C 38.738151 7.03342 38.592749 7.140187 38.5625 7.46875 C 38.50513 8.076852 38.38347 8.7106562 38.28125 9.3125 C 38.113318 10.298188 37.584613 10.944385 36.625 11.25 C 35.637226 11.563961 34.760347 11.39995 34.03125 10.65625 C 33.603596 10.220252 33.18387 9.7704019 32.78125 9.3125 C 32.507969 9.001669 32.246203 9.1946768 31.96875 9.28125 C 31.691296 9.367824 31.712492 9.5142691 31.71875 9.75 C 31.73857 10.37792 31.77295 11.029373 31.75 11.65625 C 31.69681 13.108185 30.572763 14.133344 29.125 14.125 C 28.373999 14.1208 27.816381 13.739111 27.25 13.3125 C 26.924567 13.068425 26.555615 12.830566 26.25 12.5625 C 25.93604 12.285047 25.720169 12.435201 25.4375 12.59375 C 25.142315 12.759596 25.184288 12.992365 25.25 13.25 C 25.31258 13.49199 25.373915 13.752795 25.40625 14 C 25.48448 14.58724 25.638643 15.181534 25.5625 15.75 C 25.34763 17.356307 23.527994 18.37283 22.0625 17.65625 C 21.45857 17.362108 20.851844 17.050401 20.25 16.75 C 20.146737 16.69889 20.004297 16.62913 19.90625 16.65625 C 19.454606 16.78246 19.239361 17.200434 19.40625 17.65625 C 19.600259 18.185079 19.851845 18.714911 20.03125 19.25 C 20.344167 20.180406 20.150909 21.008428 19.46875 21.71875 C 18.780332 22.434287 17.960656 22.710781 17 22.4375 C 16.38564 22.262266 15.797689 22.031501 15.1875 21.84375 C 14.724382 21.701895 14.704648 21.754631 14.34375 22.1875 C 14.11845 22.456608 14.254 22.663259 14.375 22.875 C 14.684787 23.419475 15.051736 23.93362 15.3125 24.5 C 16.071845 26.146987 14.668014 28.090871 12.875 27.90625 C 12.146946 27.83219 11.408253 27.724132 10.6875 27.59375 C 10.259847 27.51657 10.175234 27.849676 10 28.09375 C 9.8258096 28.336783 9.9873179 28.488318 10.125 28.65625 C 10.472338 29.080774 10.821429 29.503588 11.15625 29.9375 C 11.757051 30.717707 11.959946 31.576895 11.53125 32.5 C 11.083778 33.464828 10.334779 34.018733 9.25 34.03125 C 8.5782713 34.03955 7.9206854 34.04377 7.25 34.03125 C 6.9694177 34.02605 6.8324014 34.147569 6.75 34.40625 C 6.664469 34.674315 6.5100145 34.921562 6.8125 35.15625 C 7.1191587 35.396153 7.4173066 35.658002 7.71875 35.90625 C 8.3591869 36.434037 8.9385013 37.030041 8.96875 37.9375 C 9.015687 39.346669 8.131049 40.385096 6.71875 40.625 C 6.0887437 40.732434 5.4477216 40.804071 4.8125 40.875 C 4.4432579 40.91568 4.4136348 41.224675 4.34375 41.46875 C 4.276994 41.702394 4.2881758 41.910213 4.5625 42.0625 C 4.9724213 42.288843 5.3484231 42.572598 5.75 42.8125 C 6.6219955 43.3309 7.2479973 43.987067 7.1875 45.09375 C 7.123873 46.246329 6.5899945 47.071345 5.5 47.46875 C 4.8845965 47.691964 4.2779119 47.855975 3.65625 48.0625 C 3.2129509 48.209571 3.1729806 48.261849 3.125 48.75 C 3.092665 49.086907 3.2120745 49.267566 3.53125 49.375 C 3.9004921 49.499124 4.2630594 49.638352 4.625 49.78125 C 5.431283 50.09834 6.1527872 50.522739 6.40625 51.4375 C 6.7535879 52.691254 6.338951 53.885681 5.25 54.46875 C 4.6168645 54.8067 3.955023 55.149576 3.3125 55.46875 C 3.0538219 55.596003 3.0405541 55.802779 3.09375 56.0625 C 3.147989 56.324307 3.0348802 56.616572 3.4375 56.6875 C 3.897488 56.76781 4.353555 56.90821 4.8125 57 C 5.8451262 57.205481 6.6860816 57.646446 6.96875 58.75 C 7.2701935 59.927611 6.9085858 60.90842 5.9375 61.625 C 5.4837703 61.958779 5.0141435 62.22455 4.5625 62.5625 C 4.0691341 62.931743 4.073765 62.932535 4.21875 63.53125 C 4.279247 63.780541 4.3892274 63.933327 4.65625 63.9375 C 5.1214533 63.9469 5.5983397 63.97705 6.0625 64 C 6.8979885 64.04172 7.6888771 64.211533 8.21875 64.9375 C 8.9801815 65.982644 8.8324845 67.360189 7.90625 68.3125 C 7.4264439 68.806909 6.9392103 69.279581 6.4375 69.75 C 6.1266691 70.041013 6.393649 70.295478 6.46875 70.5625 C 6.541764 70.819092 6.712158 70.871913 6.96875 70.84375 C 7.480891 70.78534 7.9889021 70.779252 8.5 70.71875 C 9.4867317 70.604014 10.334655 70.832194 10.90625 71.6875 C 11.52374 72.611648 11.592536 73.606017 10.9375 74.5625 C 10.574517 75.092373 10.192172 75.575351 9.8125 76.09375 C 9.4317843 76.615278 9.4327852 76.738944 9.84375 77.21875 C 9.926151 77.31471 10.098798 77.426068 10.21875 77.40625 C 10.57026 77.3468 10.930783 77.199056 11.28125 77.125 C 11.766271 77.023823 12.26185 76.881259 12.75 76.875 C 14.28851 76.85414 15.434871 78.311541 15.0625 79.8125 C 14.947763 80.275617 14.681534 80.722339 14.46875 81.15625 C 14.262225 81.577645 14.043015 81.966121 13.8125 82.375 C 13.643525 82.6754 13.839367 82.843499 14 83.03125 C 14.149157 83.20544 14.256884 83.443925 14.5625 83.3125 C 15.088201 83.084071 15.660799 82.937875 16.15625 82.65625 C 17.873122 81.685164 19.809496 83.156083 19.71875 84.84375 C 19.69267 85.333987 19.517899 85.804573 19.375 86.28125 C 19.232101 86.762098 19.050234 87.217082 18.875 87.6875 C 18.80512 87.874207 18.861318 88.01648 19 88.15625 C 19.474592 88.636055 19.522154 88.65358 20.09375 88.3125 C 20.295059 88.193592 20.48932 88.062667 20.6875 87.9375 C 21.016064 87.72889 21.30474 87.474174 21.65625 87.3125 C 22.916263 86.73256 24.353347 87.250416 24.96875 88.5 C 25.272279 89.113318 25.234522 89.766856 25.125 90.40625 C 25.023824 90.992448 24.857434 91.570052 24.75 92.15625 C 24.73123 92.257426 24.73326 92.418642 24.78125 92.5 C 25.029497 92.909922 25.617198 92.961865 26 92.65625 C 26.06154 92.60827 26.097839 92.581322 26.15625 92.53125 C 26.614153 92.132803 27.07122 91.660881 27.5625 91.3125 C 29.01965 90.280916 31.196679 91.276792 31.34375 93.0625 C 31.40529 93.810372 31.34685 94.591705 31.34375 95.34375 C 31.34065 95.970627 31.360681 95.967415 31.9375 96.1875 C 32.169059 96.27511 32.333111 96.273201 32.5 96.0625 C 32.761807 95.731851 33.029832 95.408752 33.3125 95.09375 C 33.613944 94.758928 33.911006 94.418099 34.25 94.125 C 34.643232 93.786007 35.15454 93.629088 35.65625 93.6875 C 36.90166 93.831442 37.829856 94.362485 38.09375 95.9375 C 38.194926 96.540387 38.218667 97.172105 38.28125 97.78125 C 38.33027 98.263142 38.818133 98.593916 39.28125 98.46875 C 39.36261 98.44685 39.424942 98.354258 39.46875 98.28125 C 39.688835 97.922439 39.920562 97.587992 40.125 97.21875 C 40.447305 96.637767 40.771111 96.079647 41.34375 95.71875 C 42.434786 95.032418 44.50242 95.337075 45.03125 97.21875 C 45.213785 97.867531 45.42999 98.502254 45.59375 99.15625 C 45.65216 99.389896 45.733019 99.491609 45.96875 99.53125 C 46.58624 99.634512 46.651744 99.617426 46.90625 99.03125 C 47.162842 98.441923 47.36628 97.853888 47.65625 97.28125 C 48.09642 96.410297 48.800776 95.9375 49.78125 95.9375 C 50.780498 95.9375 51.624375 96.37379 52.09375 97.28125 C 52.404581 97.877879 52.63297 98.477304 52.90625 99.09375 C 53.119034 99.576681 53.192048 99.614652 53.6875 99.5625 C 54.003546 99.52914 54.148865 99.362897 54.21875 99.0625 C 54.37208 98.389729 54.502837 97.746703 54.71875 97.09375 C 55.275743 95.4186 57.072638 95.137976 58.0625 95.5625 C 58.602803 95.795101 58.994368 96.184788 59.3125 96.65625 C 59.654623 97.162133 59.948515 97.67536 60.28125 98.1875 C 60.34592 98.28659 60.459238 98.441631 60.5625 98.46875 C 60.96512 98.572013 61.417641 98.229723 61.46875 97.8125 C 61.48231 97.71967 61.45728 97.593874 61.46875 97.5 C 61.55428 96.801151 61.566422 96.111315 61.75 95.4375 C 62.228763 93.677863 64.443008 93.04627 65.78125 94.28125 C 66.328855 94.787132 66.802446 95.388852 67.3125 95.9375 C 67.413677 96.045978 67.528997 96.181241 67.65625 96.1875 C 68.102679 96.2094 68.421896 95.84229 68.40625 95.375 C 68.38435 94.684497 68.291642 94.030082 68.3125 93.34375 C 68.34379 92.274617 68.886182 91.497455 69.875 91.0625 C 70.810622 90.64945 71.64582 90.782502 72.4375 91.40625 C 72.941296 91.801568 73.458737 92.200476 73.9375 92.625 C 74.182618 92.840913 74.361106 92.831479 74.625 92.65625 C 74.892022 92.479974 75.105348 92.353638 75 91.96875 C 74.825808 91.336658 74.708528 90.673773 74.5625 90.03125 C 74.252711 88.665888 75.188877 87.340037 76.5 87 C 77.242657 86.805991 77.894985 87.059918 78.53125 87.4375 C 79.028788 87.734771 79.531626 88.02253 80.03125 88.3125 C 80.136598 88.373 80.30716 88.420895 80.40625 88.375 C 80.93821 88.128838 81.083611 87.872621 80.875 87.3125 C 80.635098 86.666848 80.315879 86.005047 80.125 85.34375 C 79.934103 84.688467 80.039921 84.046364 80.34375 83.5 C 80.160994 82.606464 79.988734 81.793295 79.78125 80.8125 C 79.018935 77.208966 78.095549 73.25393 77 70.5625 C 76.315941 68.882208 75.131198 66.883886 74.03125 65.09375 C 72.931302 63.303614 71.94864 61.835489 71.46875 60.65625 C 70.551901 58.405157 71.03125 55.96875 71.03125 55.96875 A 1.4224588 1.4224588 0 0 1 71.09375 55.6875 C 70.231483 55.48404 69.452537 54.912896 69.09375 54.03125 C 68.503951 52.581936 69.20735 50.932578 70.65625 50.34375 L 74.90625 48.59375 C 75.268721 48.446644 75.632055 48.401014 76 48.40625 C 76.40414 48.412001 76.794122 48.521629 77.15625 48.6875 C 77.104397 47.904718 77.041772 47.119657 76.9375 46.34375 C 76.920342 46.217578 76.914798 46.092391 76.90625 45.96875 C 75.497907 46.911233 73.974233 47.711561 72.34375 48.375 C 70.863928 48.977296 69.355681 49.409052 67.84375 49.71875 C 67.958018 50.514096 68.032125 51.330983 68.03125 52.15625 C 67.98431 62.418889 59.659248 70.436624 49.59375 70.3125 C 39.749379 70.188376 31.666388 62.153199 31.875 51.9375 C 32.005573 45.522168 35.390245 40.029501 40.375 36.90625 C 39.947042 36.111029 39.566769 35.292572 39.21875 34.4375 C 38.336292 32.268456 37.79082 30.033671 37.53125 27.8125 C 36.373626 28.468826 35.252607 29.189417 34.1875 30 C 33.340538 30.644609 32.530207 31.369869 31.75 32.09375 C 30.626628 33.135765 29.300942 33.538801 27.8125 33.34375 C 26.573349 33.182076 25.359979 32.936706 24.125 32.75 C 23.775576 32.69785 23.404622 32.73135 23.0625 32.65625 C 22.432493 32.51961 21.977512 32.081984 21.65625 31.53125 C 21.113861 30.600843 20.99487 29.667264 21.71875 28.4375 C 21.997246 28.111023 22.441004 27.529873 22.9375 27 C 23.770901 26.110272 24.601929 25.227136 25.5 24.40625 C 27.79264 22.305534 30.264062 20.458235 33 18.96875 C 34.879507 17.945164 36.827609 17.073309 38.84375 16.375 C 39.690496 13.992646 40.862067 11.728682 42.375 9.6875 C 41.750193 9.6144696 41.199893 9.297683 40.75 8.6875 C 40.397447 8.20978 40.032711 7.7225465 39.71875 7.21875 C 39.579502 6.9950143 39.441648 6.9286543 39.25 6.9375 z M 89.21875 27.21875 C 88.833559 27.300677 88.431103 27.367634 88.03125 27.4375 C 87.620712 31.425917 86.24772 35.239378 84.09375 38.59375 C 84.711976 38.851802 85.234118 39.323116 85.625 40.1875 C 85.731392 40.601594 85.916472 41.289679 86.0625 42 C 86.310748 43.193258 86.593541 44.386934 86.75 45.59375 C 87.150533 48.67807 87.224424 51.743785 86.875 54.84375 C 86.619451 57.10614 86.211281 59.353347 85.5625 61.53125 C 85.54164 61.60948 85.55316 61.670728 85.53125 61.75 C 85.420687 62.159922 85.265854 62.580732 85.09375 62.96875 C 84.945637 63.383886 84.800191 63.80257 84.65625 64.21875 C 84.486906 64.706494 84.145984 65.107339 83.75 65.375 C 83.978459 66.143522 84.207441 66.889135 84.46875 67.53125 C 85.56393 70.221774 87.681229 73.699008 89.65625 76.8125 C 89.736001 76.938222 89.7959 77.032162 89.875 77.15625 C 89.933292 77.144952 89.997116 77.121677 90.03125 77.09375 C 90.401535 76.790221 90.442047 76.378629 90.15625 76 C 89.950768 75.724632 89.710698 75.489944 89.5 75.21875 C 89.270528 74.920435 89.012768 74.630632 88.8125 74.3125 C 87.993701 73.008679 88.460656 71.320677 89.84375 70.65625 C 90.477928 70.349591 91.17515 70.446804 91.84375 70.5 C 92.263059 70.53233 92.703605 70.57915 93.125 70.59375 C 93.21992 70.59795 93.318675 70.538632 93.375 70.46875 C 93.700434 70.084905 93.685913 69.677569 93.3125 69.3125 C 93.099716 69.105974 92.871119 68.925275 92.65625 68.71875 C 92.340204 68.417307 91.997245 68.148364 91.71875 67.8125 C 91.105432 67.075059 90.981851 66.239735 91.3125 65.34375 C 91.665053 64.391438 92.401828 63.895986 93.375 63.78125 C 93.962241 63.71345 94.53463 63.73861 95.125 63.6875 C 95.297104 63.6729 95.536341 63.587663 95.625 63.46875 C 95.931659 63.0557 95.842248 62.650408 95.40625 62.34375 C 95.112108 62.136182 94.82122 61.93049 94.53125 61.71875 C 94.178697 61.461115 93.777496 61.209779 93.46875 60.90625 C 92.725051 60.17611 92.594251 59.146112 93 58.15625 C 93.364026 57.269652 94.092582 56.886723 94.96875 56.6875 C 95.454814 56.577979 95.951436 56.491822 96.4375 56.375 C 96.576228 56.34058 96.775951 56.269943 96.84375 56.15625 C 97.074265 55.790137 96.885935 55.288801 96.5 55.09375 C 95.8314 54.753714 95.157126 54.451518 94.5 54.09375 C 93.306743 53.443926 93.069133 51.831525 93.5625 50.84375 C 93.901493 50.161591 94.459529 49.801402 95.125 49.53125 C 95.558911 49.354973 95.998374 49.196052 96.4375 49.03125 C 96.668016 48.94468 96.901118 48.847297 96.84375 48.53125 C 96.78847 48.228764 96.883972 47.897029 96.40625 47.78125 C 95.726177 47.615404 95.070677 47.379464 94.40625 47.15625 C 93.426819 46.827687 92.850217 46.114904 92.6875 45.09375 C 92.529998 44.092416 92.954149 43.307034 93.75 42.71875 C 93.988861 42.542473 94.24758 42.40333 94.5 42.25 C 94.794142 42.072681 95.09859 41.921104 95.375 41.71875 C 95.506425 41.62175 95.627086 41.429364 95.625 41.28125 C 95.6167 40.732602 95.448639 40.598048 94.90625 40.5 C 94.769609 40.47497 94.668933 40.46253 94.53125 40.4375 C 93.826143 40.316505 93.07172 40.265938 92.40625 40.03125 C 90.877128 39.495118 90.422481 37.362984 91.53125 36.21875 C 91.842081 35.896446 92.165178 35.610815 92.5 35.3125 C 92.709654 35.124751 92.94138 34.933579 93.15625 34.75 C 93.340871 34.591457 93.413718 34.429489 93.28125 34.1875 C 93.151911 33.94864 93.110939 33.638518 92.71875 33.65625 C 92.314044 33.67607 91.937 33.65625 91.53125 33.65625 C 91.188085 33.65625 90.811916 33.66772 90.46875 33.65625 C 89.399617 33.6187 88.703688 33.055449 88.28125 32.09375 C 87.896362 31.211324 88.076311 30.420768 88.65625 29.6875 C 89.015062 29.232726 89.382845 28.79122 89.75 28.34375 C 89.905416 28.153913 90.06275 27.982686 89.875 27.6875 C 89.700809 27.41422 89.6245 27.133219 89.21875 27.21875 z M 29.6875 38.03125 C 30.734729 38.03125 31.642231 38.696679 32 39.625 C 32.01669 39.66568 32.01769 39.709318 32.03125 39.75 C 32.03755 39.77086 32.05624 39.79164 32.0625 39.8125 C 32.0719 39.84588 32.0552 39.87287 32.0625 39.90625 C 32.11257 40.102345 32.15625 40.28826 32.15625 40.5 C 32.15515 41.870577 31.048689 43 29.6875 43 C 28.325268 43 27.21875 41.870577 27.21875 40.5 C 27.21875 39.129424 28.325268 38.03125 29.6875 38.03125 z M 16.71875 39.5625 C 16.93688 39.54359 17.162738 39.561978 17.375 39.5625 C 17.998749 39.5646 18.518191 39.827479 18.9375 40.3125 C 19.94405 41.478638 20.96533 42.614069 21.96875 43.78125 C 22.92732 44.899406 23.25872 46.180366 22.96875 47.625 C 22.489988 50.009428 22.301903 52.419686 22.4375 54.84375 C 22.51156 55.633344 22.642565 56.433329 22.75 57.21875 C 22.81258 57.67248 22.860436 58.116071 22.84375 58.5625 C 22.89277 59.766187 22.500041 60.846671 21.6875 61.78125 C 20.897907 62.687666 20.055241 63.547773 19.25 64.4375 C 19.022614 64.688877 18.834697 64.984062 18.59375 65.21875 C 18.150451 65.649533 17.604974 65.78755 17 65.75 C 15.975718 65.69055 15.14974 65.297479 14.5625 64.0625 C 14.452979 63.666138 14.248122 62.99153 14.09375 62.3125 C 13.834029 61.172439 13.547104 60.030707 13.375 58.875 C 12.935873 55.92315 12.815254 52.981057 13.09375 50 C 13.30862 47.693802 13.698098 45.411298 14.34375 43.1875 C 14.560706 42.439628 14.821553 41.70932 15.0625 40.96875 C 15.243991 40.411758 15.628547 39.977429 16.09375 39.71875 C 16.266897 39.62175 16.500622 39.581405 16.71875 39.5625 z M 70.375 61.4375 C 71.736189 61.4375 72.84375 62.534631 72.84375 63.90625 C 72.84375 65.27787 71.735145 66.375 70.375 66.375 C 70.096504 66.375 69.844084 66.335533 69.59375 66.25 C 69.263101 66.143608 68.937834 65.956567 68.6875 65.71875 C 68.199349 65.26502 67.875 64.627002 67.875 63.90625 C 67.8761 62.535674 69.011724 61.4375 70.375 61.4375 z M 29.5 61.46875 C 29.957902 61.46875 30.351594 61.562208 30.71875 61.78125 C 31.275742 62.086866 31.651869 62.54506 31.8125 63.125 C 31.89803 63.376376 31.96875 63.656917 31.96875 63.9375 C 31.96875 65.308076 30.862233 66.40625 29.5 66.40625 C 28.137768 66.40625 27 65.309119 27 63.9375 C 27 62.56588 28.137768 61.46875 29.5 61.46875 z M 71.09375 72.09375 C 71.388674 72.08855 71.689951 72.10566 72 72.15625 C 73.168223 72.348172 74.332819 72.599716 75.5 72.8125 C 75.82752 72.87404 76.176652 72.856138 76.5 72.9375 C 77.091413 73.086657 77.493366 73.470126 77.78125 74 C 78.270443 74.898071 78.347838 75.82556 77.625 76.96875 C 77.352763 77.269151 76.953772 77.794142 76.46875 78.28125 C 75.652037 79.099006 74.811582 79.935455 73.9375 80.6875 C 71.702229 82.60881 69.323304 84.295102 66.6875 85.625 C 64.648324 86.653453 62.508134 87.503339 60.3125 88.125 C 59.574016 88.334654 58.838492 88.502879 58.09375 88.6875 C 57.531542 88.826227 56.961031 88.695139 56.5 88.4375 C 56.157878 88.245578 55.939879 87.829647 55.71875 87.46875 C 55.392274 86.940962 55.314336 86.359145 55.5 85.75 C 55.51877 85.66134 55.56454 85.52616 55.59375 85.4375 C 55.66676 85.206985 55.708235 84.980515 55.78125 84.75 C 56.123372 83.613068 56.494325 82.478596 56.84375 81.34375 C 57.006466 80.813877 57.232935 80.343249 57.53125 79.9375 C 57.72943 79.648573 57.966289 79.414887 58.25 79.1875 C 58.726677 78.805741 59.300276 78.50655 59.875 78.28125 C 61.834904 77.518775 63.690422 76.593291 65.40625 75.375 C 66.397154 74.670937 67.348715 73.869743 68.3125 73.125 C 68.420977 73.04051 68.509222 72.979263 68.625 72.90625 C 69.373655 72.371161 70.208977 72.109299 71.09375 72.09375 z M 29.3125 72.40625 C 30.33212 72.40255 31.281688 72.763904 32.125 73.46875 C 33.997287 75.032292 36.015814 76.346547 38.21875 77.375 C 39.137683 77.803697 40.106016 78.161006 41.0625 78.5 C 42.438291 78.986065 43.371203 79.931534 43.875 81.28125 C 44.293266 82.404622 44.634888 83.524533 45.03125 84.65625 C 45.1439 84.977511 45.315505 85.301652 45.40625 85.625 C 45.572097 86.219542 45.442084 86.762851 45.125 87.28125 C 44.588869 88.158461 43.854931 88.721962 42.5 88.65625 C 42.102595 88.56655 41.446721 88.403371 40.78125 88.21875 C 39.663093 87.911048 38.495201 87.643234 37.40625 87.25 C 34.620245 86.245537 31.972045 84.965745 29.5 83.3125 C 27.588077 82.03267 25.793849 80.62091 24.15625 79 C 23.605516 78.455524 23.064252 77.874707 22.53125 77.3125 C 22.130716 76.889019 21.976052 76.345503 21.96875 75.8125 C 21.96355 75.415096 22.204939 74.968207 22.40625 74.59375 C 22.702478 74.043016 23.159588 73.704355 23.78125 73.5625 C 25.273864 73.223507 26.787593 72.867114 28.28125 72.53125 C 28.638496 72.45094 28.972625 72.407504 29.3125 72.40625 z M 50 73.34375 C 51.363275 73.34375 52.46875 74.473173 52.46875 75.84375 C 52.46665 77.214326 51.363275 78.3125 50 78.3125 C 49.600509 78.3125 49.208779 78.232524 48.875 78.0625 C 47.983187 77.70056 47.44163 76.81275 47.46875 75.84375 C 47.499 74.706818 48.204649 73.615904 49.40625 73.40625 C 49.592957 73.3614 49.799733 73.34375 50 73.34375 z "
   id="path4862" /><path
   fill-rule="evenodd"
   clip-rule="evenodd"
   d="M-119.521,229.871c-0.031,0.281-0.067,0.611-0.131,1.193  c-0.668-0.392-1.189-0.696-1.725-1.01c-0.134,0.242-0.267,0.48-0.51,0.919c-0.109-0.422-0.274-0.693-0.199-0.851  c0.122-0.255,0.369-0.516,0.625-0.618c0.167-0.066,0.437,0.181,0.672,0.226C-120.424,229.8-120.051,229.815-119.521,229.871z"
   id="path3" />
<path
   style="fill:#195964;fill-opacity:1"
   d="M 46.338517,0.4186238 C 45.560854,0.94347882 44.822073,1.5022512 44.106158,2.0928934 44.822129,1.5035776 45.559832,0.94272476 46.338517,0.4186238 z M 63.034704,2.6509833 C 60.167729,2.6100061 57.249512,3.1318783 54.430818,4.2787455 43.155214,8.8681849 37.703496,21.792678 42.292365,33.06688 c 0.327083,0.80403 0.708105,1.582208 1.11618,2.325375 1.440616,-0.242517 2.905941,-0.388653 4.41821,-0.372061 8.6385,0.09464 16.206737,4.455835 20.788849,11.022275 0.823992,-0.227893 1.654079,-0.507053 2.464895,-0.837134 0.659316,-0.268262 1.288234,-0.606984 1.906808,-0.930149 -0.0038,-0.07704 -0.002,-0.156233 0,-0.232538 0.02977,-1.007538 0.420427,-1.78068 1.023165,-2.325374 0.642919,-0.699474 1.538467,-1.162689 2.557911,-1.162689 0.451634,0 0.9042,0.07722 1.302209,0.232538 2.795945,-2.649558 4.889317,-5.955324 5.999466,-9.580542 -2.013567,0.408649 -4.031086,0.807058 -6.045972,1.209195 -2.04633,0.407777 -3.869796,-0.06511 -5.441376,-1.441732 -2.614839,-2.290401 -5.451422,-4.226601 -8.557379,-5.766928 -0.558089,-0.278301 -1.147805,-0.539115 -1.720778,-0.790629 -0.494094,-0.2024 -0.980749,-0.401824 -1.488238,-0.55809 -0.775373,-0.238118 -1.456987,-0.585622 -2.04633,-1.023164 -1.247144,-0.787278 -2.137483,-1.911271 -2.650927,-3.395047 -0.55809,-1.61325 -1.007909,-3.259616 -1.534747,-4.883286 -0.148823,-0.459865 -0.392523,-0.929405 -0.511582,-1.395224 -0.214307,-0.849784 -0.0037,-1.642644 0.465074,-2.371882 0.694079,-1.076927 1.608227,-1.7485388 3.116003,-1.8137925 0.215396,-0.00939 0.41001,-0.017116 0.651105,0 0.564043,0.1413833 1.521352,0.3668505 2.464896,0.6511054 1.581999,0.4777241 3.204924,0.8914561 4.743763,1.4882391 3.936395,1.525445 7.64918,3.467227 11.115291,5.906452 2.683295,1.887087 5.20921,3.960205 7.487705,6.325017 0.208354,0.215796 0.403685,0.429358 0.604598,0.651106 0.08808,0.08095 0.192329,0.147435 0.279044,0.232537 C 84.742572,21.620335 84.213944,18.97556 83.172446,16.417201 79.731534,7.9618597 71.63563,2.7739135 63.034704,2.6509833 z M 47.640725,24.137443 c 0.503025,0 0.960659,0.08705 1.395225,0.279044 0.208353,0.05507 0.417079,0.157381 0.604598,0.325554 0.02977,0.02679 0.06325,0.06473 0.09301,0.09301 0.86169,0.645895 1.441731,1.673153 1.441731,2.836957 0,1.957035 -1.592417,3.534569 -3.534569,3.534569 -1.946618,0 -3.534569,-1.577534 -3.534569,-3.534569 0,-1.955547 1.587951,-3.534569 3.534569,-3.534569 z M 92.055376,25.1141 c -0.01354,0.95233 -0.08064,1.896736 -0.18603,2.836957 0.10696,-0.946123 0.172167,-1.878547 0.18603,-2.836957 z m -0.18603,2.836957 c -0.100237,0.894244 -0.237635,1.773331 -0.418568,2.650926 0.180026,-0.871621 0.318176,-1.762863 0.418568,-2.650926 z M 33.548957,27.578998 c 0.124035,1.32001 0.341209,2.638347 0.651105,3.953135 -0.31561,-1.322064 -0.523786,-2.625723 -0.651105,-3.953135 z m 2.60442,9.580541 c 0.06879,0.151414 0.11346,0.316122 0.18603,0.465074 0.01254,-0.0061 0.03396,0.0061 0.04651,0 -0.07492,-0.153223 -0.160048,-0.310027 -0.232537,-0.465074 z m 52.088384,1.999823 c -0.298138,0.529567 -0.599317,1.023783 -0.930149,1.534747 0.32755,-0.505785 0.63461,-1.010745 0.930149,-1.534747 z m -1.44173,2.278867 c -0.284134,0.410419 -0.578268,0.812907 -0.883644,1.209194 0.306277,-0.39727 0.598701,-0.797732 0.883644,-1.209194 z m -7.766751,7.673736 c -0.359118,0.239834 -0.744194,0.472503 -1.11618,0.697612 0.375838,-0.227428 0.753452,-0.455166 1.11618,-0.697612 z"
   id="path5"
   inkscape:connector-curvature="0" />
<path
   inkscape:connector-curvature="0"
   d="M 71.801816,47.079557 C 59.546908,52.067378 45.520203,46.153982 40.532385,33.899072 35.546987,21.645185 41.459912,7.6173327 53.713334,2.6307885 65.9679,-2.3562224 79.995756,3.5567059 84.981153,15.810591 89.96931,28.064692 84.057189,42.092884 71.801816,47.079557 z M 55.951036,8.1278397 C 46.726779,11.882331 42.277028,22.438942 46.031052,31.662051 49.783588,40.886437 60.341815,45.33687 69.565265,41.582036 78.788841,37.82916 83.239273,27.270937 79.484443,18.047485 75.731224,8.8247159 65.174612,4.3749625 55.951036,8.1278397 z"
   id="path97"
   style="fill:#64c4d9;fill-opacity:1;fill-rule:evenodd" /><path
   inkscape:connector-curvature="0"
   d="m 77.223638,50.717219 c 0.4198,1.032975 -0.07667,2.210786 -1.108949,2.630873 l -3.021742,1.230848 c -1.032398,0.418418 -2.211187,-0.07764 -2.630879,-1.108949 l 0,0 c -0.420489,-1.033268 0.07627,-2.21177 1.109242,-2.631567 l 3.020759,-1.230448 c 1.033673,-0.419509 2.211188,0.07764 2.631569,1.109243 l 0,0 z"
   id="path101"
   style="fill:#64c4d9;fill-opacity:1;fill-rule:evenodd" /><path
   inkscape:connector-curvature="0"
   d="m 83.145607,68.054202 c -1.492721,-3.668059 -2.261585,-9.265957 -2.948348,-10.956359 -0.689022,-1.68891 -2.498982,-3.04885 -2.498982,-3.04885 l -2.589165,1.054808 -0.07178,0.0292 -2.590257,1.053536 c 0,0 -0.346045,2.237329 0.341996,3.926641 0.687744,1.69 4.044497,6.234181 5.53791,9.902532 2.341996,5.753568 3.642664,15.954322 4.797531,18.794985 0.380482,0.934954 2.483956,4.145334 6.655077,2.44847 l -0.05761,-0.141539 0.05831,0.141839 c 4.172,-1.698952 3.436172,-5.464171 3.054999,-6.39942 -1.156348,-2.84292 -7.347688,-11.052261 -9.689682,-16.805829 z"
   id="path103"
   style="fill:#64c4d9;fill-opacity:1;fill-rule:evenodd" /></svg>