<?xml version="1.0" encoding="UTF-8" standalone="no"?>
<svg
   viewBox="0 0 45.735 45.735"
   version="1.1"
   id="svg15"
   sodipodi:docname="data.svg"
   inkscape:version="1.1.1 (3bf5ae0d25, 2021-09-20)"
   xmlns:inkscape="http://www.inkscape.org/namespaces/inkscape"
   xmlns:sodipodi="http://sodipodi.sourceforge.net/DTD/sodipodi-0.dtd"
   xmlns="http://www.w3.org/2000/svg"
   xmlns:svg="http://www.w3.org/2000/svg"
   xmlns:rdf="http://www.w3.org/1999/02/22-rdf-syntax-ns#"
   xmlns:cc="http://creativecommons.org/ns#"
   xmlns:dc="http://purl.org/dc/elements/1.1/">
  <metadata
     id="metadata19">
    <rdf:RDF>
      <cc:Work
         rdf:about="">
        <dc:format>image/svg+xml</dc:format>
        <dc:type
           rdf:resource="http://purl.org/dc/dcmitype/StillImage" />
      </cc:Work>
    </rdf:RDF>
  </metadata>
  <sodipodi:namedview
     pagecolor="#ffffff"
     bordercolor="#666666"
     borderopacity="1"
     objecttolerance="10"
     gridtolerance="10"
     guidetolerance="10"
     inkscape:pageopacity="0"
     inkscape:pageshadow="2"
     inkscape:window-width="1920"
     inkscape:window-height="1051"
     id="namedview17"
     showgrid="false"
     inkscape:zoom="11.020006"
     inkscape:cx="26.088915"
     inkscape:cy="21.007248"
     inkscape:window-x="-9"
     inkscape:window-y="-9"
     inkscape:window-maximized="1"
     inkscape:current-layer="g13"
     inkscape:pagecheckerboard="0" />
  <defs
     id="defs5" />
  <g
     fill="#2da0b7"
     id="g13">
    <path
       stroke-width=".221"
       d="M22.868 1.512A21.356 21.356 0 001.512 22.867a21.356 21.356 0 0021.356 21.356 21.356 21.356 0 0021.355-21.356A21.356 21.356 0 0022.868 1.512zm0 3.176a18.179 18.179 0 0118.178 18.18 18.179 18.179 0 01-18.178 18.178 18.179 18.179 0 01-18.18-18.179 18.179 18.179 0 0118.18-18.179z"
       id="path7" />
    <g
       mask="none"
       style="line-height:0.8;-inkscape-font-specification:inconsolata"
       stroke-width="0.247"
       font-family="inconsolata"
       font-size="9.884px"
       font-weight="400"
       letter-spacing="0"
       transform="translate(-3.402,-1.045)"
       word-spacing="0"
       id="g11">
      <path
         id="path193"
         style="line-height:0.8"
         d="m 22.867188,4.6875 c -0.04362,4.94e-4 -0.08724,0.00115 -0.13086,0.00195 v 5.2793 h 0.691406 V 4.6972656 c -0.186787,-0.00614 -0.373658,-0.00939 -0.560546,-0.00977 z m -0.232422,0.00195 c -0.415913,0.00527 -0.831522,0.024813 -1.246094,0.058594 l 0.113281,0.2773437 z m 3.671875,0.328125 c -0.243315,0.5082829 -0.398438,1.15212 -0.398438,1.9160157 0,1.9959999 1.018094,3.1425783 1.996094,3.1425783 0.89,0 1.949219,-0.9687502 1.949219,-3.0937502 0,-0.3394787 -0.03555,-0.6436734 -0.08398,-0.9316407 C 29.362439,5.883498 28.949407,5.7310538 28.53125,5.59375 L 26.689453,7.9824219 C 26.594085,7.6005184 26.54749,7.2080703 26.550781,6.8144531 c 0,-0.7063116 0.149176,-1.2598657 0.363281,-1.6679687 -0.201725,-0.046424 -0.404228,-0.089399 -0.607421,-0.1289063 z M 18.486328,5.2246094 C 18.254664,5.2819141 18.02415,5.343775 17.794922,5.4101562 V 9.96875 h 0.691406 z m 10.595703,0.6015625 c 0.089,0.346 0.128907,0.7610937 0.128907,1.2460937 0,1.72 -0.741157,2.3710938 -1.285157,2.3710938 -0.365,0 -0.740812,-0.2958438 -1.007812,-0.8398438 z M 14.996094,6.4804688 c -0.210331,0.1007986 -0.418703,0.2056357 -0.625,0.3144531 0.0034,0.093582 0.01367,0.1778066 0.01367,0.2773437 0,1.72 -0.742157,2.3710938 -1.285157,2.3710938 -0.366,0 -0.740812,-0.2958438 -1.007812,-0.8398438 l 0.650391,-0.8339844 c -0.451072,0.3025264 -0.88836,0.6251157 -1.310547,0.9667969 0.381137,0.8638484 1.021625,1.3398439 1.648437,1.3398439 0.89,0 1.947266,-0.9687501 1.947266,-3.0937501 0,-0.1775944 -0.01741,-0.3383678 -0.03125,-0.5019531 z m 17.623047,1.046875 V 9.96875 H 33.3125 V 7.9902344 C 33.084949,7.8306576 32.853769,7.6763202 32.619141,7.5273438 Z M 13.070312,11.667969 c -0.977999,0 -1.986328,1.206828 -1.986328,3.173828 0,1.996 1.018094,3.142578 1.996094,3.142578 0.89,0 1.947266,-0.96875 1.947266,-3.09375 0,-2.095 -1.008032,-3.222656 -1.957032,-3.222656 z m 4.941407,0 c -0.979,0 -1.986328,1.206828 -1.986328,3.173828 0,1.996 1.017093,3.142578 1.996093,3.142578 0.89,0 1.947266,-0.96875 1.947266,-3.09375 0,-2.095 -1.008031,-3.222656 -1.957031,-3.222656 z m 9.884765,0 c -0.979,0 -1.988281,1.206828 -1.988281,3.173828 0,1.996 1.018094,3.142578 1.996094,3.142578 0.89,0 1.949219,-0.96875 1.949219,-3.09375 0,-2.095 -1.009032,-3.222656 -1.957032,-3.222656 z m -19.3789059,0.03906 c -0.2200884,0.282744 -0.4317694,0.571933 -0.6347656,0.867188 l 0.027344,-0.0078 V 17.875 h 0.6933594 v -6.167969 z m 14.4355469,0 -1.609375,0.841797 0.158203,0.384766 1.234375,-0.367188 V 17.875 h 0.691406 v -6.167969 z m 9.884766,0 -1.611329,0.841797 0.158204,0.384766 1.234375,-0.367188 V 17.875 H 33.3125 v -6.167969 z m 4.539062,0.210938 -1.207031,0.630859 0.15625,0.384766 1.236328,-0.367188 V 17.875 h 0.691406 V 13.185547 C 37.97964,12.750813 37.68706,12.327907 37.376953,11.917969 Z m -24.316406,0.353515 c 0.336,0 0.70175,0.265594 0.96875,0.808594 l -2.166016,2.808594 c -0.09455,-0.381354 -0.140483,-0.773135 -0.136719,-1.166016 0,-1.581 0.720985,-2.451172 1.333985,-2.451172 z m 4.941406,0 c 0.336,0 0.70175,0.265594 0.96875,0.808594 l -2.164062,2.808594 c -0.0952,-0.38127 -0.141798,-0.773052 -0.138672,-1.166016 0,-1.581 0.720984,-2.451172 1.333984,-2.451172 z m 9.884766,0 c 0.336,0 0.699797,0.265594 0.966797,0.808594 l -2.164063,2.808594 c -0.0952,-0.38127 -0.141798,-0.773052 -0.138672,-1.166016 0,-1.581 0.722938,-2.451172 1.335938,-2.451172 z m -13.63086,1.462891 c 0.09,0.346 0.128907,0.759141 0.128907,1.244141 0,1.72 -0.742157,2.373046 -1.285157,2.373046 -0.366,0 -0.740812,-0.295843 -1.007812,-0.839843 z m 4.941407,0 c 0.089,0.346 0.128906,0.759141 0.128906,1.244141 0,1.72 -0.739203,2.373046 -1.283203,2.373046 -0.366,0 -0.742766,-0.295843 -1.009766,-0.839843 z m 9.884765,0 c 0.089,0.346 0.128907,0.759141 0.128907,1.244141 0,1.72 -0.741157,2.373046 -1.285157,2.373046 -0.365,0 -0.740812,-0.295843 -1.007812,-0.839843 z m -16.011719,5.839844 c -0.977999,0 -1.986328,1.206828 -1.986328,3.173828 0,1.996 1.018094,3.142578 1.996094,3.142578 0.89,0 1.947266,-0.96875 1.947266,-3.09375 0,-2.095 -1.008032,-3.222656 -1.957032,-3.222656 z m 9.882813,0 c -0.979,0 -1.986328,1.206828 -1.986328,3.173828 0,1.996 1.019047,3.142578 1.998047,3.142578 0.89,0 1.945312,-0.96875 1.945312,-3.09375 0,-2.095 -1.008031,-3.222656 -1.957031,-3.222656 z m 14.826172,0 c -0.978,0 -1.986328,1.206828 -1.986328,3.173828 0,1.996 1.018094,3.142578 1.996093,3.142578 0.890001,0 1.947266,-0.96875 1.947266,-3.09375 0,-2.095 -1.008031,-3.222656 -1.957031,-3.222656 z m -29.6503908,0.04102 -1.6113281,0.839844 0.1582031,0.384766 1.234375,-0.365235 v 5.306641 h 0.6933594 v -6.166016 z m 9.8828128,0 -1.611328,0.839844 0.158203,0.384766 1.236328,-0.365235 v 5.306641 h 0.691406 v -6.166016 z m 9.884765,0 -1.611328,0.839844 0.158203,0.384766 1.234375,-0.365235 v 5.306641 h 0.691407 v -6.166016 z m 4.941407,0 -1.611329,0.839844 0.158204,0.384766 1.234375,-0.365235 V 25.78125 H 33.3125 v -6.166016 z m -19.777344,0.5625 c 0.336,0 0.70175,0.267547 0.96875,0.810547 l -2.166016,2.806641 c -0.09455,-0.381354 -0.140483,-0.773135 -0.136719,-1.166016 0,-1.581 0.720985,-2.451172 1.333985,-2.451172 z m 9.882812,0 c 0.336,0 0.70275,0.267547 0.96875,0.810547 l -2.164062,2.806641 c -0.0952,-0.38127 -0.141798,-0.773052 -0.138672,-1.166016 0,-1.581 0.720984,-2.451172 1.333984,-2.451172 z m 14.826172,0 c 0.336,0 0.70175,0.267547 0.96875,0.810547 l -2.166015,2.806641 c -0.09455,-0.381354 -0.140483,-0.773135 -0.136719,-1.166016 0,-1.581 0.720984,-2.451172 1.333984,-2.451172 z m -23.513672,1.462891 c 0.09,0.346 0.128907,0.761094 0.128907,1.246094 0,1.72 -0.742157,2.371094 -1.285157,2.371093 -0.366,0 -0.740812,-0.295843 -1.007812,-0.839843 z m 9.884766,0 c 0.089,0.346 0.126953,0.761094 0.126953,1.246094 0,1.72 -0.741156,2.371094 -1.285156,2.371093 -0.365,0 -0.739813,-0.295843 -1.007813,-0.839843 z m 14.824219,0 c 0.09,0.346 0.128906,0.761094 0.128906,1.246094 0,1.72 -0.742156,2.371094 -1.285156,2.371093 -0.366,0 -0.740813,-0.295843 -1.007813,-0.839843 z m -20.953125,5.841797 c -0.979,0 -1.986328,1.204875 -1.986328,3.171875 0,1.996 1.017093,3.142578 1.996093,3.142578 0.89,0 1.947266,-0.96875 1.947266,-3.09375 0,-2.095 -1.008031,-3.220703 -1.957031,-3.220703 z m 14.826172,0 c -0.98,0 -1.986328,1.204875 -1.986329,3.171875 0,1.996 1.018094,3.142578 1.996094,3.142578 0.89,0 1.947266,-0.96875 1.947266,-3.09375 0,-2.095 -1.008031,-3.220703 -1.957031,-3.220703 z m 4.941406,0 c -0.978,0 -1.986328,1.204875 -1.986328,3.171875 0,1.751888 0.783631,2.849652 1.636719,3.091797 0.144511,-0.193145 0.285164,-0.389148 0.421874,-0.587891 -0.01404,8.5e-4 -0.02916,0.0059 -0.04297,0.0059 -0.366,0 -0.740813,-0.296843 -1.007813,-0.839843 l 2.164063,-2.775391 c 0.09,0.345 0.128906,0.759141 0.128906,1.244141 0,0.108573 -0.0119,0.200614 -0.01758,0.300781 0.212272,-0.416759 0.408381,-0.841554 0.58789,-1.273438 -0.2399,-1.521026 -1.080798,-2.33789 -1.884765,-2.33789 z m -29.6503908,0.03906 -1.6113281,0.839844 0.1582031,0.384766 1.234375,-0.365235 v 4.820313 c 0.1144859,0.164689 0.2316894,0.327471 0.3515626,0.488281 h 0.3417968 v -6.167969 z m 4.9414058,0 -1.609374,0.839844 0.15625,0.384766 1.236328,-0.365235 v 5.308594 h 0.691406 v -6.167969 z m 9.882813,0 -1.609375,0.839844 0.158203,0.384766 1.234375,-0.365235 v 5.308594 h 0.691406 v -6.167969 z m 4.943359,0 -1.611328,0.839844 0.158203,0.384766 1.234375,-0.365235 v 5.308594 h 0.691407 v -6.167969 z m -9.894531,0.564454 c 0.336,0 0.70175,0.265593 0.96875,0.808593 l -2.164062,2.806641 c -0.0952,-0.38127 -0.141798,-0.773052 -0.138672,-1.166016 0,-1.581 0.720984,-2.449218 1.333984,-2.449218 z m 14.824219,0 c 0.337,0 0.702703,0.265593 0.970703,0.808593 l -2.164063,2.806641 c -0.09586,-0.381186 -0.143112,-0.772969 -0.140624,-1.166016 0,-1.581 0.721984,-2.449218 1.333984,-2.449218 z m 4.943359,0 c 0.336,0 0.70175,0.265593 0.96875,0.808593 l -2.166015,2.806641 c -0.09455,-0.381354 -0.140483,-0.773135 -0.136719,-1.166016 0,-1.581 0.720984,-2.449218 1.333984,-2.449218 z m -18.572265,1.46289 c 0.089,0.345 0.128906,0.759141 0.128906,1.244141 0,1.72 -0.739203,2.371093 -1.283203,2.371093 -0.366,0 -0.742766,-0.296843 -1.009766,-0.839843 z m 14.826172,0 c 0.09,0.345 0.128906,0.759141 0.128906,1.244141 0,1.72 -0.741157,2.371093 -1.285156,2.371093 -0.366,0 -0.740813,-0.296843 -1.007813,-0.839843 z m -20.953126,5.839844 c -0.667542,0 -1.341614,0.572794 -1.707031,1.554687 0.164979,0.135095 0.332323,0.267277 0.501953,0.396485 0.23837,-0.87533 0.745194,-1.347656 1.195313,-1.347656 0.336,0 0.70175,0.267546 0.96875,0.810546 L 13,38.136719 c 0.161156,0.103477 0.323936,0.204401 0.488281,0.302734 l 0.767578,-0.986328 c 0.09,0.346 0.128907,0.761094 0.128907,1.246094 0,0.08601 -0.01008,0.157562 -0.01367,0.238281 0.203097,0.107394 0.408212,0.210928 0.615234,0.310547 0.0228,-0.201515 0.04102,-0.408823 0.04102,-0.636719 0,-2.096 -1.008032,-3.222656 -1.957032,-3.222656 z m 14.826172,0 c -0.979,0 -1.988281,1.205875 -1.988281,3.171875 0,0.892722 0.211084,1.604613 0.523438,2.130859 0.226182,-0.04519 0.451483,-0.09468 0.675781,-0.148437 -0.06669,-0.09387 -0.131738,-0.19317 -0.189453,-0.310547 l 2.164062,-2.779297 c 0.089,0.346 0.128907,0.761094 0.128907,1.246094 0,0.521091 -0.07365,0.934877 -0.183594,1.271484 0.237537,-0.08557 0.473265,-0.176089 0.707031,-0.271484 0.06992,-0.325132 0.119141,-0.678033 0.119141,-1.087891 0,-2.096 -1.009032,-3.222656 -1.957032,-3.222656 z m 4.941407,0 c -0.98,0 -1.986328,1.205875 -1.986329,3.171875 0,0.217988 0.01618,0.421816 0.03906,0.619141 0.208409,-0.102804 0.414827,-0.209595 0.619141,-0.320313 -0.01206,-0.138341 -0.01792,-0.277151 -0.01758,-0.416016 0,-1.582 0.721984,-2.451172 1.333984,-2.451171 0.337,0 0.702703,0.267546 0.970703,0.810546 l -0.992187,1.28711 c 0.58463,-0.38203 1.146759,-0.797432 1.683593,-1.244141 -0.369552,-0.949401 -1.019514,-1.457031 -1.65039,-1.457031 z m -14.826172,0.03906 -1.611328,0.839844 0.158203,0.386719 1.236328,-0.367188 v 4.035157 c 0.229215,0.06704 0.459728,0.129548 0.691406,0.1875 v -5.082032 z m 4.941406,0 -1.609375,0.839844 0.158203,0.386719 1.234375,-0.367188 v 4.757813 c 0.04362,8.08e-4 0.08724,0.0015 0.13086,0.002 0.186888,-3.74e-4 0.373759,-0.0036 0.560546,-0.0098 v -5.609375 z m 4.933594,0.564454 c 0.336,0 0.699797,0.267546 0.966797,0.810546 l -2.164063,2.806641 c -0.0952,-0.38127 -0.141798,-0.773052 -0.138672,-1.166016 0,-1.582 0.722938,-2.451172 1.335938,-2.451171 z"
         transform="translate(3.402,1.045)"
         sodipodi:nodetypes="cccccccccccsssccccccccccccssccccsscccssccccccssssssssssssssscccccccccccccccccccccccccccccccscccsscccsscccscsscccsscccssccsssssssssssssssccccccccccccccccccccccccccccccccscccsscccsscccscsscccsscccssccssssssssssssccsccsccscccccccccccccccccccccccccccccccccscccsscccsscccscsscccssccsccsccccsccssssccccsccsssscccscccscccccccccccccccccscccs" />
    </g>
  </g>
</svg>
