<?xml version="1.0" encoding="UTF-8" standalone="no"?>
<svg
   xmlns:dc="http://purl.org/dc/elements/1.1/"
   xmlns:cc="http://creativecommons.org/ns#"
   xmlns:rdf="http://www.w3.org/1999/02/22-rdf-syntax-ns#"
   xmlns:svg="http://www.w3.org/2000/svg"
   xmlns="http://www.w3.org/2000/svg"
   xmlns:sodipodi="http://sodipodi.sourceforge.net/DTD/sodipodi-0.dtd"
   xmlns:inkscape="http://www.inkscape.org/namespaces/inkscape"
   version="1.1"
   id="Sprocket"
   x="0px"
   y="0px"
   width="100px"
   height="100px"
   viewBox="0 0 100 100"
   enable-background="new 0 0 100 100"
   xml:space="preserve"
   inkscape:version="0.91 r13725"
   sodipodi:docname="demo.svg"
   inkscape:export-filename="C:\Users\wilkie\occam\benchmark_large.png"
   inkscape:export-xdpi="86.400002"
   inkscape:export-ydpi="86.400002"><metadata
     id="metadata11"><rdf:RDF><cc:Work
         rdf:about=""><dc:format>image/svg+xml</dc:format><dc:type
           rdf:resource="http://purl.org/dc/dcmitype/StillImage" /><dc:title></dc:title></cc:Work></rdf:RDF></metadata><defs
     id="defs9" /><sodipodi:namedview
     pagecolor="#ffffff"
     bordercolor="#666666"
     borderopacity="1"
     objecttolerance="10"
     gridtolerance="10"
     guidetolerance="10"
     inkscape:pageopacity="0"
     inkscape:pageshadow="2"
     inkscape:window-width="1920"
     inkscape:window-height="1057"
     id="namedview7"
     showgrid="false"
     inkscape:zoom="0.70710678"
     inkscape:cx="-402.81565"
     inkscape:cy="-16.116494"
     inkscape:window-x="-8"
     inkscape:window-y="-8"
     inkscape:window-maximized="1"
     inkscape:current-layer="Sprocket" /><path
     style="opacity:1;fill:#2da0b7;fill-opacity:1;stroke:none"
     d="m 86.115987,44.734651 c -2.626801,10.499956 -7.675049,19.432954 -8.67854,21.171051 -0.04277,0.07408 -0.08672,0.147207 -0.129733,0.221103 l 10.482838,6.052269 c 0.04303,-0.07393 0.08744,-0.146652 0.130252,-0.220803 0.971323,-1.682381 5.359044,-9.560823 6.91513,-19.748664 C 93.059978,50.195724 90.008849,47.617355 86.116,44.734659 Z M 35.035279,15.384079 c -4.109967,-1.712837 -7.573448,-2.863155 -10.011411,-3.227157 -7.011362,5.440679 -11.67107,11.974268 -13.738802,15.555685 -0.04214,0.05971 -0.09555,0.144946 -0.141881,0.214089 l 9.304253,5.371813 c 0.04042,-0.07121 0.08867,-0.159572 0.125575,-0.223503 2.167545,-3.754297 7.379143,-11.30788 14.462217,-17.690955 z"
     id="circle4755"
     inkscape:connector-curvature="0" /><path
     style="fill:#2da0b7;fill-opacity:1;fill-rule:evenodd;stroke:none;stroke-width:1px;stroke-linecap:butt;stroke-linejoin:miter;stroke-opacity:1"
     d="m 9.4349252,26.573985 a 46.846405,46.846405 0 0 0 -0.033103,0.05134 46.846405,46.846405 0 0 0 -6.0110931,19.013449 c 0.2177361,0.556388 0.6116802,1.188527 1.163267,1.886104 1.2340341,-9.985785 5.2728805,-17.74732 6.731021,-19.812291 0.0095,-0.01644 0.02197,-0.03566 0.03154,-0.05224 L 9.4349034,26.573973 Z M 87.950278,71.904846 c -0.0071,0.01236 -0.02267,0.04167 -0.02947,0.05344 -3.690664,6.392417 -8.456013,11.831843 -13.914876,15.997943 1.34731,0.285041 2.408794,0.361521 3.132216,0.20036 a 46.846405,46.846405 0 0 0 13.404002,-14.68487 46.846405,46.846405 0 0 0 0.02843,-0.05404 l -2.620329,-1.512848 z"
     id="path4758"
     inkscape:connector-curvature="0" /><path
     style="fill:#2da0b7;fill-opacity:1;fill-rule:evenodd;stroke:none;stroke-width:1px;stroke-linecap:butt;stroke-linejoin:miter;stroke-opacity:1"
     d="m 20.604085,33.022503 c -0.0095,0.01642 -0.02163,0.03625 -0.03103,0.05253 -1.508794,2.613309 -5.958372,11.402812 -8.158109,21.555516 4.101482,3.129762 9.272129,6.626714 14.913391,10.152578 4.044415,-9.646604 9.172888,-18.94528 10.717306,-21.620291 0.0086,-0.01498 0.02229,-0.03742 0.03102,-0.05253 L 20.604095,33.022509 Z m 38.655173,22.317574 c -0.0067,0.01166 -0.02361,0.0421 -0.02999,0.05314 -4.180693,7.241173 -8.706724,14.327127 -13.055625,20.321737 6.106206,3.284967 12.001455,6.201644 17.047757,8.399774 5.317627,-4.955119 10.195529,-11.24526 14.216052,-18.209011 0.0066,-0.01141 0.02305,-0.04112 0.02999,-0.05314 l -18.208184,-10.5125 z"
     id="path4789"
     inkscape:connector-curvature="0" /><path
     style="fill:#2da0b7;fill-opacity:1;fill-rule:evenodd;stroke:none;stroke-width:1px;stroke-linecap:butt;stroke-linejoin:miter;stroke-opacity:1"
     d="m 59.795033,27.910569 c -2.816711,-1.606738 -5.634196,-3.156338 -8.4017,-4.628552 -5.896877,7.676962 -11.145896,16.067212 -13.347684,19.88082 -0.03228,0.05591 -0.09082,0.16151 -0.126095,0.223203 l 21.180564,12.228605 c 0.04279,-0.07396 0.0865,-0.147415 0.129213,-0.221404 1.000668,-1.733207 6.411024,-11.338767 10.953923,-21.310949 -3.372639,-2.084359 -6.871503,-4.165674 -10.388152,-6.171684 z"
     id="path4797"
     inkscape:connector-curvature="0" /><path
     style="fill:#2da0b7;fill-opacity:1;fill-rule:evenodd;stroke:none;stroke-width:1px;stroke-linecap:butt;stroke-linejoin:miter;stroke-opacity:1"
     d="m 76.120006,18.088219 c -1.04791,4.529373 -3.351687,10.319461 -5.936526,15.993524 5.955143,3.68039 11.47998,7.363473 15.930804,10.659378 1.494884,-5.972767 2.202683,-12.451051 0.939564,-18.403024 -3.244196,-2.901286 -6.97796,-5.685246 -10.933842,-8.249878 z M 62.996529,10.721355 C 58.804276,8.696959 54.696787,7.0137739 50.962331,5.7722675 45.07026,7.5587919 39.652517,11.222193 35.031423,15.387273 c 4.790151,1.997201 10.444607,4.746932 16.36191,7.894744 3.812573,-4.963471 7.893622,-9.627667 11.603196,-12.560662 z"
     id="path4802"
     inkscape:connector-curvature="0" /><path
     style="opacity:1;fill:#2da0b7;fill-opacity:1;stroke:none"
     d="M 73.395289,9.4787917 A 46.846405,46.846405 0 0 0 69.677611,7.5870743 c -1.938321,0.011748 -4.22755,1.1943835 -6.681082,3.1342807 2.775424,1.340223 5.585354,2.824441 8.347065,4.431059 1.615418,0.939763 3.212013,1.921593 4.776412,2.935805 0.656535,-2.837739 0.820499,-5.179226 0.253069,-6.685643 A 46.846405,46.846405 0 0 0 73.395289,9.4787917 Z"
     id="path4810"
     inkscape:connector-curvature="0" /><path
     style="fill:#2da0b7;fill-opacity:1;fill-rule:evenodd;stroke:none;stroke-width:1px;stroke-linecap:butt;stroke-linejoin:miter;stroke-opacity:1"
     d="m 27.328344,64.783128 c -2.35748,5.622983 -4.346069,11.36034 -5.038384,15.978312 4.050341,2.766726 8.474098,5.424051 12.997463,7.741164 C 38.521091,85.57755 42.274199,81.090007 46.173638,75.714939 39.85246,72.314323 33.334087,68.536789 27.328344,64.783127 Z"
     id="path4821"
     inkscape:connector-curvature="0" /><path
     style="fill:#2da0b7;fill-opacity:1;fill-rule:evenodd;stroke:none;stroke-width:1px;stroke-linecap:butt;stroke-linejoin:miter;stroke-opacity:1"
     d="m 4.5542704,47.520963 c -0.7446368,6.02149 -0.4648147,12.851374 2.0135178,19.731378 1.398489,1.694572 3.190668,3.522377 5.2915318,5.409536 C 10.627251,66.814639 11.14418,60.495625 12.414952,54.63055 8.8430738,51.904925 6.0893334,49.460487 4.5542704,47.520963 Z M 74.008693,87.953749 c -2.649648,-0.562822 -6.391033,-1.924061 -10.787299,-3.839036 -4.865147,4.533491 -10.098175,7.94744 -15.380181,9.739245 3.16347,1.050687 6.245896,1.821659 9.145108,2.221695 6.082313,-1.385462 11.86237,-4.183276 17.022372,-8.121904 z"
     id="path4826"
     inkscape:connector-curvature="0" /><path
     style="opacity:1;fill:#2da0b7;fill-opacity:1;stroke:none"
     d="m 11.85932,72.661877 c 0.732067,3.474398 2.084015,6.781047 4.262605,9.726948 a 46.846405,46.846405 0 0 0 6.92526,5.968036 C 21.957663,86.650075 21.807373,83.980457 22.28996,80.76144 18.377464,78.088875 14.816267,75.318031 11.85932,72.661877 Z m 35.981896,21.192082 c -4.119295,-1.368149 -8.376564,-3.211553 -12.553793,-5.351355 -2.277357,2.060006 -4.295681,3.342483 -5.923666,3.611539 a 46.846405,46.846405 0 0 0 7.985885,3.009396 c 3.456225,0.391256 6.984561,-0.0799 10.491574,-1.26958 z"
     id="path4850"
     inkscape:connector-curvature="0" /><path
     style="fill:#2da0b7;fill-opacity:1;fill-rule:evenodd;stroke:none;stroke-width:1px;stroke-linecap:butt;stroke-linejoin:miter;stroke-opacity:1"
     d="m 43.093352,3.7359827 c -0.02402,-0.00394 -0.04735,-0.00749 -0.07133,-0.011378 A 46.846405,46.846405 0 0 0 22.536786,12.123795 c 0.631857,-0.139146 1.472882,-0.122375 2.491458,0.03023 C 29.928055,8.3526758 35.976465,5.0876351 43.093352,3.7359835 Z M 93.570993,33.238258 c 2.115846,6.59264 2.152465,13.154346 1.265536,18.965596 0.929927,1.053044 1.509529,1.950947 1.675257,2.655843 A 46.846405,46.846405 0 0 0 93.769245,33.503768 c -0.06663,-0.0885 -0.13065,-0.177079 -0.198252,-0.26551 z"
     id="path4861"
     inkscape:connector-curvature="0" /><path
     style="opacity:1;fill:#2da0b7;fill-opacity:1;stroke:none"
     d="m 81.906828,15.845845 c 2.729892,3.101437 4.340493,6.689429 5.147525,10.492543 2.50873,2.244633 4.72735,4.559168 6.51664,6.89987 C 91.661575,27.288816 88.057212,21.314629 81.906828,15.845845 Z M 62.469923,4.962621 C 55.337905,2.804797 48.86428,2.6399483 43.093352,3.7359827 45.399096,4.1132304 48.070391,4.809766 50.965558,5.7714218 54.642413,4.6570183 58.503418,4.2770811 62.469923,4.962621 Z"
     id="path4869"
     inkscape:connector-curvature="0" /></svg>