<?xml version="1.0" encoding="UTF-8" standalone="no"?>
<!-- Created with Inkscape (http://www.inkscape.org/) -->

<svg
   xmlns:dc="http://purl.org/dc/elements/1.1/"
   xmlns:cc="http://creativecommons.org/ns#"
   xmlns:rdf="http://www.w3.org/1999/02/22-rdf-syntax-ns#"
   xmlns:svg="http://www.w3.org/2000/svg"
   xmlns="http://www.w3.org/2000/svg"
   xmlns:sodipodi="http://sodipodi.sourceforge.net/DTD/sodipodi-0.dtd"
   xmlns:inkscape="http://www.inkscape.org/namespaces/inkscape"
   width="68.26667"
   height="68.26667"
   id="svg4864"
   version="1.1"
   inkscape:version="0.92.1 r"
   sodipodi:docname="framework.svg"
   inkscape:export-filename="C:\Users\wilkie\occam\object_large.png"
   inkscape:export-xdpi="135"
   inkscape:export-ydpi="135">
  <defs
     id="defs4866" />
  <sodipodi:namedview
     id="base"
     pagecolor="#ffffff"
     bordercolor="#666666"
     borderopacity="1.0"
     inkscape:pageopacity="0.0"
     inkscape:pageshadow="2"
     inkscape:zoom="7.1044918"
     inkscape:cx="49.621624"
     inkscape:cy="46.67498"
     inkscape:current-layer="layer1"
     showgrid="true"
     inkscape:document-units="px"
     inkscape:grid-bbox="true"
     inkscape:window-width="1920"
     inkscape:window-height="1172"
     inkscape:window-x="1920"
     inkscape:window-y="0"
     inkscape:window-maximized="1"
     inkscape:snap-others="false"
     inkscape:object-nodes="false"
     inkscape:snap-nodes="false"
     inkscape:snap-global="false" />
  <metadata
     id="metadata4869">
    <rdf:RDF>
      <cc:Work
         rdf:about="">
        <dc:format>image/svg+xml</dc:format>
        <dc:type
           rdf:resource="http://purl.org/dc/dcmitype/StillImage" />
        <dc:title></dc:title>
      </cc:Work>
    </rdf:RDF>
  </metadata>
  <g
     id="layer1"
     inkscape:label="Layer 1"
     inkscape:groupmode="layer">
    <path
       style="fill:#2da0b7;fill-opacity:1;stroke:none;stroke-width:0.95405573"
       d="M 34.148438 11.03125 L 12.908203 21.652344 L 34.148438 32.273438 L 55.388672 21.652344 L 34.148438 11.03125 z M 34.148438 12.888672 L 51.675781 21.652344 L 34.148438 30.416016 L 16.619141 21.652344 L 34.148438 12.888672 z "
       id="rect4892" />
    <path
       style="fill:#2da0b7;fill-opacity:1;stroke:none;stroke-width:1.0091058"
       d="M 56.785156 23.169922 L 35.304688 33.876953 L 35.304688 56.830078 L 56.785156 46.125 L 56.785156 23.169922 z M 54.472656 26.794922 L 54.472656 44.804688 L 37.617188 53.207031 L 37.617188 35.195312 L 54.472656 26.794922 z "
       id="rect4907" />
    <path
       style="fill:#2da0b7;fill-opacity:1;stroke:none;stroke-width:1.0091058"
       d="M 11.669922 23.304688 L 11.669922 46.257812 L 33.150391 56.964844 L 33.150391 34.011719 L 11.669922 23.304688 z M 13.792969 26.628906 L 31.029297 35.220703 L 31.029297 53.640625 L 13.792969 45.048828 L 13.792969 26.628906 z "
       id="rect4938" />
    <rect
       style="fill:#2da0b7;fill-opacity:1;stroke-width:0.75510204"
       id="rect10404"
       width="2.135751"
       height="13.081475"
       x="33.21418"
       y="14.968496"
       ry="1.0678755" />
    <rect
       ry="1.0678755"
       y="-45.294518"
       x="20.441359"
       height="21.557739"
       width="2.135751"
       id="rect10406"
       style="fill:#2da0b7;fill-opacity:1;stroke-width:0.96934605"
       transform="rotate(90)"
       rx="0" />
    <rect
       ry="1.0678755"
       y="-22.269268"
       x="59.348522"
       height="21.557739"
       width="2.135751"
       id="rect10427"
       style="fill:#2da0b7;fill-opacity:1;stroke-width:0.96934605"
       transform="matrix(0.8660254,0.5,0.5,-0.8660254,0,0)"
       rx="0" />
    <rect
       rx="0"
       transform="matrix(-0.53504251,0.84482514,0.85102272,0.52512888,0,0)"
       style="fill:#2da0b7;fill-opacity:1;stroke-width:0.7812351"
       id="rect10429"
       width="2.3232286"
       height="14.912446"
       x="8.8202629"
       y="53.211121"
       ry="1.1616143" />
    <rect
       rx="0"
       transform="rotate(150)"
       style="fill:#2da0b7;fill-opacity:1;stroke-width:0.96934605"
       id="rect10431"
       width="2.135751"
       height="21.557739"
       x="-0.041005343"
       y="-56.557831"
       ry="1.0678755" />
    <rect
       ry="1.1616143"
       y="-4.7285118"
       x="44.834545"
       height="14.912446"
       width="2.3232286"
       id="rect10433"
       style="fill:#2da0b7;fill-opacity:1;stroke-width:0.7812351"
       transform="matrix(0.53504251,0.84482514,-0.85102272,0.52512888,0,0)"
       rx="0" />
  </g>
</svg>
