<?xml version="1.0" encoding="UTF-8" standalone="no"?>
<!-- Created with Inkscape (http://www.inkscape.org/) -->

<svg
   xmlns:dc="http://purl.org/dc/elements/1.1/"
   xmlns:cc="http://creativecommons.org/ns#"
   xmlns:rdf="http://www.w3.org/1999/02/22-rdf-syntax-ns#"
   xmlns:svg="http://www.w3.org/2000/svg"
   xmlns="http://www.w3.org/2000/svg"
   xmlns:sodipodi="http://sodipodi.sourceforge.net/DTD/sodipodi-0.dtd"
   xmlns:inkscape="http://www.inkscape.org/namespaces/inkscape"
   width="64px"
   height="64px"
   id="svg4864"
   version="1.1"
   inkscape:version="0.92.2 5c3e80d, 2017-08-06"
   sodipodi:docname="library.svg"
   inkscape:export-filename="C:\Users\wilkie\occam\object_large.png"
   inkscape:export-xdpi="135"
   inkscape:export-ydpi="135">
  <defs
     id="defs4866" />
  <sodipodi:namedview
     id="base"
     pagecolor="#ffffff"
     bordercolor="#666666"
     borderopacity="1.0"
     inkscape:pageopacity="0.0"
     inkscape:pageshadow="2"
     inkscape:zoom="5.656854"
     inkscape:cx="53.938882"
     inkscape:cy="9.1308701"
     inkscape:current-layer="layer1"
     showgrid="true"
     inkscape:document-units="px"
     inkscape:grid-bbox="true"
     inkscape:window-width="1920"
     inkscape:window-height="1172"
     inkscape:window-x="1920"
     inkscape:window-y="0"
     inkscape:window-maximized="1" />
  <metadata
     id="metadata4869">
    <rdf:RDF>
      <cc:Work
         rdf:about="">
        <dc:format>image/svg+xml</dc:format>
        <dc:type
           rdf:resource="http://purl.org/dc/dcmitype/StillImage" />
        <dc:title />
      </cc:Work>
    </rdf:RDF>
  </metadata>
  <g
     id="layer1"
     inkscape:label="Layer 1"
     inkscape:groupmode="layer">
    <path
       style="fill:#2da0b7;fill-opacity:1;stroke:none;stroke-width:0.09862603px;stroke-linecap:butt;stroke-linejoin:miter;stroke-opacity:1"
       d="m 10.849105,29.184239 c -2.4513628,0.464595 -2.4651264,-4.766582 -5.9775787,-3.68619 -6.8610464,2.110168 -3.497672,15.111818 -0.099757,15.242975 3.0304013,0.117303 3.4019843,-5.1934 6.2764727,-4.881759 6.380564,0.690887 1.197418,17.102466 1.394801,16.737347 5.748145,0.643783 16.435501,4.663318 17.434796,-0.299263 0.548648,-2.726058 -5.532749,-3.539144 -5.280224,-6.176994 0.462747,-4.836871 11.896505,-5.244017 14.246637,0.299263 0.81281,1.917126 -5.12348,3.880064 -4.084651,6.176901 2.53052,5.595279 15.430568,-1.232978 17.235471,-0.797108 -0.340827,-2.90192 -3.241454,-14.113447 0.996339,-15.940332 2.173715,-0.937227 3.529818,4.284807 5.878009,3.985082 4.266335,-0.544952 6.911387,-11.804876 0,-14.346389 -2.181198,-0.801727 -3.441146,4.425017 -6.176901,4.383729 -5.635644,-0.08311 -2.320852,-11.978615 -0.497848,-17.63421 -5.737336,-1.648067 -15.039312,-4.9607341 -17.733688,-0.5976 -1.569463,2.54142 5.827855,5.313565 4.283977,7.870503 -2.437695,4.037361 -12.112823,4.05565 -14.147069,-0.198585 -1.346772,-2.816943 6.52595,-4.340873 5.778348,-7.372379 -1.296341,-5.2571325 -8.201724,-1.920914 -19.128398,1.09591 1.484213,-0.173658 7.855635,14.57296 -0.398091,16.139654 z"
       id="path5771"
       inkscape:connector-curvature="0"
       sodipodi:nodetypes="sssscsssscsssscsssscs" />
  </g>
</svg>
