<?xml version="1.0" encoding="UTF-8" standalone="no"?>
<!-- Created with Inkscape (http://www.inkscape.org/) -->

<svg
   xmlns:dc="http://purl.org/dc/elements/1.1/"
   xmlns:cc="http://creativecommons.org/ns#"
   xmlns:rdf="http://www.w3.org/1999/02/22-rdf-syntax-ns#"
   xmlns:svg="http://www.w3.org/2000/svg"
   xmlns="http://www.w3.org/2000/svg"
   xmlns:sodipodi="http://sodipodi.sourceforge.net/DTD/sodipodi-0.dtd"
   xmlns:inkscape="http://www.inkscape.org/namespaces/inkscape"
   width="640"
   height="640"
   id="svg2"
   version="1.1"
   inkscape:version="0.91 r13725"
   inkscape:export-filename="C:\Users\wilkie\occam\graph_large.png"
   inkscape:export-xdpi="13.438891"
   inkscape:export-ydpi="13.438891"
   sodipodi:docname="graph_large.svg">
  <defs
     id="defs4">
    <inkscape:perspective
       sodipodi:type="inkscape:persp3d"
       inkscape:vp_x="264.60078 : 318.1066 : 1"
       inkscape:vp_y="0 : 1000 : 0"
       inkscape:vp_z="-375.40416 : 318.1066 : 1"
       inkscape:persp3d-origin="-55.40169 : 212.07107 : 1"
       id="perspective3865" />
  </defs>
  <sodipodi:namedview
     id="base"
     pagecolor="#ffffff"
     bordercolor="#666666"
     borderopacity="1.0"
     inkscape:pageopacity="0.0"
     inkscape:pageshadow="2"
     inkscape:zoom="0.65639883"
     inkscape:cx="-175.90253"
     inkscape:cy="311.80961"
     inkscape:document-units="px"
     inkscape:current-layer="layer1"
     showgrid="false"
     fit-margin-top="0"
     fit-margin-left="0"
     fit-margin-right="0"
     fit-margin-bottom="0"
     inkscape:window-width="1920"
     inkscape:window-height="1058"
     inkscape:window-x="-8"
     inkscape:window-y="-8"
     inkscape:window-maximized="1"
     showguides="true"
     inkscape:guide-bbox="true" />
  <metadata
     id="metadata7">
    <rdf:RDF>
      <cc:Work
         rdf:about="">
        <dc:format>image/svg+xml</dc:format>
        <dc:type
           rdf:resource="http://purl.org/dc/dcmitype/StillImage" />
        <dc:title />
      </cc:Work>
    </rdf:RDF>
  </metadata>
  <g
     inkscape:label="Layer 1"
     inkscape:groupmode="layer"
     id="layer1"
     transform="translate(-54.224541,-358.13755)">
    <path
       style="fill:#2da0b7;fill-opacity:1;fill-rule:evenodd;stroke:none"
       d="m 185.30869,639.68408 76.10771,11.11797 0,158.25324 -76.10771,-11.11797 z"
       id="rect2985"
       inkscape:connector-curvature="0"
       sodipodi:nodetypes="ccccc" />
    <path
       style="fill:#2da0b7;fill-opacity:1;fill-rule:evenodd;stroke:none"
       d="m 310.68709,518.05895 75.83414,11.17929 0,297.91083 -75.83414,-11.1793 z"
       id="rect3799"
       inkscape:connector-curvature="0"
       sodipodi:nodetypes="ccccc" />
    <path
       style="fill:#2da0b7;fill-opacity:1;fill-rule:evenodd;stroke:none"
       d="m 435.6824,563.84161 75.96836,11.13901 0,270.04996 -75.96836,-11.13901 z"
       id="rect3812"
       inkscape:connector-curvature="0"
       sodipodi:nodetypes="ccccc" />
    <path
       sodipodi:nodetypes="ccccc"
       inkscape:connector-curvature="0"
       id="path4043"
       d="m 551.14039,569.36922 -38.06478,5.6114 0,270.04996 38.06478,-5.61141 z"
       style="fill:#2da0b7;fill-opacity:1;fill-rule:evenodd;stroke:none" />
    <path
       style="fill:#2da0b7;fill-opacity:1;fill-rule:evenodd;stroke:none"
       d="m 426.04098,523.61952 -38.06478,5.61141 0,297.99307 38.06478,-5.6114 z"
       id="path4056"
       inkscape:connector-curvature="0"
       sodipodi:nodetypes="ccccc" />
    <path
       sodipodi:nodetypes="ccccc"
       inkscape:connector-curvature="0"
       id="path4069"
       d="m 300.88129,645.21244 -38.06479,5.61141 0,158.31041 38.06479,-5.61141 z"
       style="fill:#2da0b7;fill-opacity:1;fill-rule:evenodd;stroke:none" />
    <path
       sodipodi:nodetypes="ccccc"
       inkscape:connector-curvature="0"
       id="path4082"
       d="m 436.18134,562.5514 75.96837,11.13901 38.07996,-5.57921 -75.96836,-11.13901 z"
       style="fill:#64c4d9;fill-opacity:1;fill-rule:evenodd;stroke:none" />
    <path
       style="fill:none;stroke:#000000;stroke-width:1px;stroke-linecap:butt;stroke-linejoin:miter;stroke-opacity:1"
       d="m 6480.9133,701.21885 848.1241,124.43984"
       id="path4007"
       inkscape:connector-curvature="0" />
    <path
       inkscape:connector-curvature="0"
       id="path4030"
       d="M 7639.0376,701.21885 6790.9133,825.65869"
       style="fill:none;stroke:#000000;stroke-width:1px;stroke-linecap:butt;stroke-linejoin:miter;stroke-opacity:1" />
    <path
       style="fill:#64c4d9;fill-opacity:1;fill-rule:evenodd;stroke:none"
       d="m 311.07341,516.82373 75.96837,11.13901 38.07996,-5.57921 -75.96836,-11.13901 z"
       id="path4119"
       inkscape:connector-curvature="0"
       sodipodi:nodetypes="ccccc" />
    <path
       sodipodi:nodetypes="ccccc"
       inkscape:connector-curvature="0"
       id="path4143"
       d="m 185.96829,638.42782 75.96836,11.13901 38.07997,-5.57921 -75.96836,-11.13901 z"
       style="fill:#64c4d9;fill-opacity:1;fill-rule:evenodd;stroke:none" />
  </g>
</svg>
