<?xml version="1.0" encoding="UTF-8" standalone="no"?>
<!-- Created with Inkscape (http://www.inkscape.org/) -->

<svg
   width="64px"
   height="64px"
   id="svg4864"
   version="1.1"
   inkscape:version="1.1.1 (3bf5ae0d25, 2021-09-20)"
   sodipodi:docname="ruby-gem.svg"
   inkscape:export-filename="C:\Users\wilkie\occam\object_large.png"
   inkscape:export-xdpi="135"
   inkscape:export-ydpi="135"
   xmlns:inkscape="http://www.inkscape.org/namespaces/inkscape"
   xmlns:sodipodi="http://sodipodi.sourceforge.net/DTD/sodipodi-0.dtd"
   xmlns="http://www.w3.org/2000/svg"
   xmlns:svg="http://www.w3.org/2000/svg"
   xmlns:rdf="http://www.w3.org/1999/02/22-rdf-syntax-ns#"
   xmlns:cc="http://creativecommons.org/ns#"
   xmlns:dc="http://purl.org/dc/elements/1.1/">
  <defs
     id="defs4866" />
  <sodipodi:namedview
     id="base"
     pagecolor="#ffffff"
     bordercolor="#666666"
     borderopacity="1.0"
     inkscape:pageopacity="0.0"
     inkscape:pageshadow="2"
     inkscape:zoom="1.6269531"
     inkscape:cx="32.268908"
     inkscape:cy="32.268908"
     inkscape:current-layer="layer1"
     showgrid="true"
     inkscape:document-units="px"
     inkscape:grid-bbox="true"
     inkscape:window-width="1920"
     inkscape:window-height="1051"
     inkscape:window-x="-9"
     inkscape:window-y="-9"
     inkscape:window-maximized="1"
     inkscape:pagecheckerboard="0"
     inkscape:snap-global="false" />
  <metadata
     id="metadata4869">
    <rdf:RDF>
      <cc:Work
         rdf:about="">
        <dc:format>image/svg+xml</dc:format>
        <dc:type
           rdf:resource="http://purl.org/dc/dcmitype/StillImage" />
      </cc:Work>
    </rdf:RDF>
  </metadata>
  <g
     id="layer1"
     inkscape:label="Layer 1"
     inkscape:groupmode="layer">
    <rect
       style="fill:#64c4d9;fill-opacity:1;stroke:none;stroke-width:1.32297"
       id="rect4892"
       width="29.45351"
       height="29.45351"
       x="-15.359694"
       y="21.671328"
       transform="matrix(0.89442719,-0.4472136,0.89442719,0.4472136,0,0)" />
    <path
       id="rect4907"
       style="fill:#2da0b7;fill-opacity:1;stroke:none;stroke-width:1.25158"
       d="M 60.064453 18.443359 L 33.423828 31.722656 L 33.423828 60.191406 L 60.064453 46.912109 L 60.064453 18.443359 z M 45.849609 30.552734 L 45.810547 30.990234 L 43.966797 32.974609 L 41.201172 32.474609 L 45.849609 30.552734 z M 48.242188 30.638672 C 49.653887 30.638208 51.259087 31.106802 52.65625 31.949219 C 55.365898 33.582074 56.742898 36.422438 55.402344 38.294922 C 54.062712 40.167969 50.611993 39.834029 47.902344 38.201172 C 45.192692 36.568317 43.771603 33.834022 45.111328 31.960938 C 45.446467 31.492587 45.91627 31.15581 46.474609 30.939453 C 46.998052 30.736618 47.600506 30.638883 48.242188 30.638672 z M 40.869141 32.664062 L 43.701172 33.175781 L 38.580078 39.142578 C 37.951712 37.287128 37.906688 34.509887 40.869141 32.664062 z M 44.306641 33.935547 L 45.332031 37.115234 L 38.955078 39.03125 C 39.913722 37.883884 43.027344 34.275391 43.027344 34.275391 L 44.306641 33.935547 z M 56.496094 37.095703 L 56.689453 41.074219 C 56.689453 41.074219 56.691406 41.076172 56.691406 41.076172 C 56.691256 41.081672 56.691645 41.086387 56.691406 41.091797 L 56.691406 41.107422 L 56.689453 41.107422 C 56.688522 41.124852 56.6882 41.140473 56.6875 41.158203 C 56.297918 40.573978 56.029448 40.174083 55.863281 39.921875 L 55.818359 39.855469 L 55.435547 39.28125 L 55.4375 39.28125 L 56.066406 37.183594 L 56.496094 37.095703 z M 45.087891 37.601562 L 43.378906 44.886719 C 41.363232 43.517663 39.573976 41.890935 38.666016 39.408203 L 45.087891 37.601562 z M 46.341797 37.632812 L 50.742188 40.025391 L 50.746094 40.03125 L 43.625 45.076172 L 45.291016 37.931641 L 46.341797 37.632812 z M 38.359375 38.970703 A 10.569351 8.6284982 18.817888 0 0 40.097656 42.414062 L 39.171875 49.289062 L 38.359375 38.970703 z M 55.054688 39.46875 L 52.869141 46.257812 C 52.869141 46.257812 51.584259 42.202052 51.029297 40.115234 L 55.054688 39.46875 z M 55.294922 39.677734 L 56.646484 41.705078 C 56.316353 44.565143 54.345652 45.627641 53.199219 46.126953 L 55.294922 39.677734 z M 50.775391 40.371094 L 52.521484 46.351562 C 49.028462 47.280828 46.350308 46.473383 43.943359 45.197266 L 50.775391 40.371094 z M 40.332031 42.707031 A 10.569351 8.6284982 18.817888 0 0 40.947266 43.371094 A 10.569351 8.6284981 18.817889 0 0 40.949219 43.375 A 10.569351 8.6284981 18.817889 0 0 40.976562 43.402344 A 10.569351 8.6284982 18.817888 0 0 41.011719 43.439453 A 10.569351 8.6284979 18.817891 0 0 41.03125 43.460938 A 10.569351 8.6284982 18.817888 0 0 41.636719 44.003906 A 10.569351 8.6284979 18.817891 0 0 41.806641 44.152344 A 10.569351 8.6284981 18.817889 0 0 41.810547 44.154297 A 10.569351 8.6284982 18.817888 0 0 41.810547 44.15625 A 10.569351 8.6284982 18.817888 0 0 42.367188 44.578125 A 10.569351 8.6284981 18.817889 0 0 42.369141 44.578125 A 10.569351 8.6284979 18.817891 0 0 42.369141 44.580078 A 10.569351 8.6284979 18.817891 0 0 42.664062 44.791016 A 10.569351 8.6284982 18.817888 0 0 42.664062 44.792969 A 10.569351 8.6284982 18.817888 0 0 43.390625 45.255859 A 10.569351 8.6284979 18.817891 0 0 43.431641 45.277344 L 39.275391 50.591797 L 39.273438 50.564453 L 40.332031 42.707031 z M 43.640625 45.388672 A 10.569351 8.6284982 18.817888 0 0 44.572266 45.853516 A 10.569351 8.6284979 18.817891 0 0 44.572266 45.855469 A 10.569351 8.6284979 18.817891 0 0 44.605469 45.869141 A 10.569351 8.6284982 18.817888 0 0 44.607422 45.869141 A 10.569351 8.6284982 18.817888 0 0 45.542969 46.244141 A 10.569351 8.6284979 18.817891 0 0 45.542969 46.246094 A 10.569351 8.6284979 18.817891 0 0 45.611328 46.269531 A 10.569351 8.6284981 18.817889 0 0 45.615234 46.267578 A 10.569351 8.6284982 18.817888 0 0 45.617188 46.269531 A 10.569351 8.6284982 18.817888 0 0 46.541016 46.554688 A 10.569351 8.6284979 18.817891 0 0 46.6875 46.589844 A 10.569351 8.6284982 18.817888 0 0 47.484375 46.771484 L 39.740234 50.378906 L 43.640625 45.388672 z M 47.939453 46.84375 A 10.569351 8.6284982 18.817888 0 0 48.976562 46.955078 A 10.569351 8.6284982 18.817888 0 0 48.978516 46.957031 A 10.569351 8.6284981 18.817889 0 0 48.982422 46.955078 A 10.569351 8.6284982 18.817888 0 0 50.005859 46.980469 A 10.569351 8.6284979 18.817891 0 0 50.007812 46.978516 A 10.569351 8.6284979 18.817891 0 0 50.013672 46.978516 A 10.569351 8.6284979 18.817891 0 0 50.015625 46.980469 A 10.569351 8.6284981 18.817889 0 0 50.017578 46.978516 A 10.569351 8.6284982 18.817888 0 0 50.019531 46.978516 A 10.569351 8.6284982 18.817888 0 0 50.783203 46.939453 L 41 50.076172 L 47.939453 46.84375 z " />
    <path
       id="rect4938"
       style="fill:#2da0b7;fill-opacity:1;stroke:none;stroke-width:1.25158"
       d="M 4.1113281 18.609375 L 4.1113281 47.080078 L 30.751953 60.359375 L 30.751953 31.888672 L 4.1113281 18.609375 z M 18.208984 30.552734 L 22.857422 32.474609 L 20.091797 32.974609 L 18.248047 30.990234 L 18.208984 30.552734 z M 15.816406 30.638672 C 16.458088 30.638883 17.060542 30.736618 17.583984 30.939453 C 18.142323 31.15581 18.612127 31.492587 18.947266 31.960938 C 20.286991 33.834022 18.865902 36.568317 16.15625 38.201172 C 13.446601 39.834029 9.995882 40.167969 8.65625 38.294922 C 7.3156958 36.422438 8.6926958 33.582074 11.402344 31.949219 C 12.799507 31.106802 14.404707 30.638208 15.816406 30.638672 z M 23.189453 32.664062 C 26.151906 34.509887 26.106882 37.287128 25.478516 39.142578 L 20.357422 33.175781 L 23.189453 32.664062 z M 19.751953 33.935547 L 21.03125 34.275391 C 21.03125 34.275391 24.144872 37.883884 25.103516 39.03125 L 18.726562 37.115234 L 19.751953 33.935547 z M 7.5625 37.095703 L 7.9921875 37.183594 L 8.6210938 39.28125 L 8.6230469 39.28125 L 8.2402344 39.855469 L 8.1953125 39.921875 C 8.0291453 40.174083 7.7606762 40.573978 7.3710938 41.158203 C 7.3704337 41.140473 7.3700723 41.124852 7.3691406 41.107422 L 7.3671875 41.107422 L 7.3671875 41.091797 C 7.3669483 41.086387 7.3673375 41.081672 7.3671875 41.076172 C 7.3671875 41.076172 7.3691406 41.074219 7.3691406 41.074219 L 7.5625 37.095703 z M 18.970703 37.601562 L 25.392578 39.408203 C 24.484618 41.890935 22.695362 43.517663 20.679688 44.886719 L 18.970703 37.601562 z M 17.716797 37.632812 L 18.767578 37.931641 L 20.433594 45.076172 L 13.3125 40.03125 L 13.316406 40.025391 L 17.716797 37.632812 z M 25.699219 38.970703 L 24.886719 49.289062 L 23.960938 42.414062 A 8.6284982 10.569351 71.182112 0 0 25.699219 38.970703 z M 9.0039062 39.46875 L 13.029297 40.115234 C 12.474335 42.202052 11.189453 46.257812 11.189453 46.257812 L 9.0039062 39.46875 z M 8.7636719 39.677734 L 10.859375 46.126953 C 9.7129417 45.627641 7.7422408 44.565143 7.4121094 41.705078 L 8.7636719 39.677734 z M 13.283203 40.371094 L 20.115234 45.197266 C 17.708285 46.473383 15.030131 47.280828 11.537109 46.351562 L 13.283203 40.371094 z M 23.726562 42.707031 L 24.787109 50.564453 L 24.785156 50.591797 L 20.628906 45.277344 A 8.6284979 10.569351 71.182109 0 0 20.669922 45.255859 A 8.6284982 10.569351 71.182112 0 0 21.396484 44.792969 A 8.6284982 10.569351 71.182112 0 1 21.396484 44.791016 A 8.6284979 10.569351 71.182109 0 0 21.691406 44.580078 A 8.6284979 10.569351 71.182109 0 1 21.691406 44.578125 A 8.6284981 10.569351 71.182111 0 1 21.693359 44.578125 A 8.6284982 10.569351 71.182112 0 0 22.25 44.15625 A 8.6284982 10.569351 71.182112 0 1 22.25 44.154297 A 8.6284981 10.569351 71.182111 0 1 22.251953 44.152344 A 8.6284979 10.569351 71.182109 0 0 22.421875 44.003906 A 8.6284982 10.569351 71.182112 0 0 23.027344 43.460938 A 8.6284979 10.569351 71.182109 0 0 23.046875 43.439453 A 8.6284982 10.569351 71.182112 0 0 23.082031 43.402344 A 8.6284981 10.569351 71.182111 0 0 23.109375 43.375 A 8.6284981 10.569351 71.182111 0 0 23.111328 43.371094 A 8.6284982 10.569351 71.182112 0 0 23.726562 42.707031 z M 20.417969 45.388672 L 24.320312 50.378906 L 16.576172 46.771484 A 8.6284982 10.569351 71.182112 0 0 17.373047 46.589844 A 8.6284979 10.569351 71.182109 0 0 17.519531 46.554688 A 8.6284982 10.569351 71.182112 0 0 18.443359 46.269531 A 8.6284982 10.569351 71.182112 0 1 18.445312 46.267578 A 8.6284981 10.569351 71.182111 0 1 18.447266 46.269531 A 8.6284979 10.569351 71.182109 0 0 18.515625 46.246094 A 8.6284979 10.569351 71.182109 0 1 18.515625 46.244141 A 8.6284982 10.569351 71.182112 0 0 19.451172 45.869141 A 8.6284982 10.569351 71.182112 0 1 19.453125 45.869141 A 8.6284979 10.569351 71.182109 0 0 19.486328 45.855469 A 8.6284979 10.569351 71.182109 0 1 19.486328 45.853516 A 8.6284982 10.569351 71.182112 0 0 20.417969 45.388672 z M 16.119141 46.84375 L 23.060547 50.076172 L 13.277344 46.939453 A 8.6284982 10.569351 71.182112 0 0 14.041016 46.978516 A 8.6284982 10.569351 71.182112 0 1 14.042969 46.978516 A 8.6284981 10.569351 71.182111 0 1 14.044922 46.980469 A 8.6284979 10.569351 71.182109 0 1 14.046875 46.978516 A 8.6284979 10.569351 71.182109 0 0 14.052734 46.978516 A 8.6284979 10.569351 71.182109 0 1 14.054688 46.980469 A 8.6284982 10.569351 71.182112 0 0 15.078125 46.955078 A 8.6284981 10.569351 71.182111 0 1 15.080078 46.957031 A 8.6284982 10.569351 71.182112 0 1 15.082031 46.955078 A 8.6284982 10.569351 71.182112 0 0 16.119141 46.84375 z " />
  </g>
</svg>
