<?xml version="1.0" encoding="UTF-8" standalone="no"?>
<!-- Created with Inkscape (http://www.inkscape.org/) -->

<svg
   xmlns:dc="http://purl.org/dc/elements/1.1/"
   xmlns:cc="http://creativecommons.org/ns#"
   xmlns:rdf="http://www.w3.org/1999/02/22-rdf-syntax-ns#"
   xmlns:svg="http://www.w3.org/2000/svg"
   xmlns="http://www.w3.org/2000/svg"
   xmlns:sodipodi="http://sodipodi.sourceforge.net/DTD/sodipodi-0.dtd"
   xmlns:inkscape="http://www.inkscape.org/namespaces/inkscape"
   width="64px"
   height="64px"
   id="svg4864"
   version="1.1"
   inkscape:version="0.92.2 5c3e80d, 2017-08-06"
   sodipodi:docname="trace.svg"
   inkscape:export-filename="C:\Users\wilkie\occam\object_large.png"
   inkscape:export-xdpi="135"
   inkscape:export-ydpi="135">
  <defs
     id="defs4866" />
  <sodipodi:namedview
     id="base"
     pagecolor="#ffffff"
     bordercolor="#666666"
     borderopacity="1.0"
     inkscape:pageopacity="0.0"
     inkscape:pageshadow="2"
     inkscape:zoom="1"
     inkscape:cx="32.653558"
     inkscape:cy="31.280099"
     inkscape:current-layer="layer1"
     showgrid="true"
     inkscape:document-units="px"
     inkscape:grid-bbox="true"
     inkscape:window-width="1920"
     inkscape:window-height="1172"
     inkscape:window-x="1920"
     inkscape:window-y="0"
     inkscape:window-maximized="1" />
  <metadata
     id="metadata4869">
    <rdf:RDF>
      <cc:Work
         rdf:about="">
        <dc:format>image/svg+xml</dc:format>
        <dc:type
           rdf:resource="http://purl.org/dc/dcmitype/StillImage" />
        <dc:title></dc:title>
      </cc:Work>
    </rdf:RDF>
  </metadata>
  <g
     id="layer1"
     inkscape:label="Layer 1"
     inkscape:groupmode="layer">
    <path
       style="fill:#2da0b7;fill-opacity:1;stroke:none;stroke-width:1.13333333px;stroke-linecap:butt;stroke-linejoin:miter;stroke-opacity:1"
       d="M 9.1855469 1.9472656 C 16.937999 22.386802 2.907223 41.615742 9.1855469 62.052734 L 53.861328 62.052734 C 48.693062 42.038509 61.79468 22.928668 53.861328 1.9472656 L 9.1855469 1.9472656 z M 13.042969 4.9472656 L 51.568359 4.9472656 C 54.402766 13.952052 53.454269 22.702326 51.9375 31.873047 C 50.501657 40.554473 48.856142 49.606023 50.369141 59.052734 L 11.642578 59.052734 C 9.6037777 50.39413 11.065925 41.725462 12.693359 32.523438 C 14.235826 23.801847 15.515744 14.548703 13.042969 4.9472656 z "
       id="path6514" />
    <text
       xml:space="preserve"
       style="font-style:normal;font-variant:normal;font-weight:normal;font-stretch:normal;font-size:14.73082066px;line-height:1.25;font-family:inconsolata;-inkscape-font-specification:inconsolata;letter-spacing:0px;word-spacing:0px;fill:#2da0b7;fill-opacity:1;stroke:none;stroke-width:0.36827058"
       x="18.842743"
       y="20.917206"
       id="text6518"><tspan
         sodipodi:role="line"
         id="tspan6516"
         x="18.842743"
         y="20.917206"
         style="fill:#2da0b7;fill-opacity:1;stroke-width:0.36827058">0110</tspan></text>
    <text
       id="text6546"
       y="36.917206"
       x="17.385635"
       style="font-style:normal;font-variant:normal;font-weight:normal;font-stretch:normal;font-size:14.73082066px;line-height:1.25;font-family:inconsolata;-inkscape-font-specification:inconsolata;letter-spacing:0px;word-spacing:0px;fill:#2da0b7;fill-opacity:1;stroke:none;stroke-width:0.36827058"
       xml:space="preserve"><tspan
         style="fill:#2da0b7;fill-opacity:1;stroke-width:0.36827058"
         y="36.917206"
         x="17.385635"
         id="tspan6544"
         sodipodi:role="line">0110</tspan></text>
    <text
       xml:space="preserve"
       style="font-style:normal;font-variant:normal;font-weight:normal;font-stretch:normal;font-size:14.73082066px;line-height:1.25;font-family:inconsolata;-inkscape-font-specification:inconsolata;letter-spacing:0px;word-spacing:0px;fill:#2da0b7;fill-opacity:1;stroke:none;stroke-width:0.36827058"
       x="15.294642"
       y="52.917206"
       id="text6550"><tspan
         sodipodi:role="line"
         id="tspan6548"
         x="15.294642"
         y="52.917206"
         style="fill:#2da0b7;fill-opacity:1;stroke-width:0.36827058">0110</tspan></text>
  </g>
</svg>
