<?xml version="1.0" encoding="UTF-8" standalone="no"?>
<svg
   xmlns:dc="http://purl.org/dc/elements/1.1/"
   xmlns:cc="http://creativecommons.org/ns#"
   xmlns:rdf="http://www.w3.org/1999/02/22-rdf-syntax-ns#"
   xmlns:svg="http://www.w3.org/2000/svg"
   xmlns="http://www.w3.org/2000/svg"
   xmlns:sodipodi="http://sodipodi.sourceforge.net/DTD/sodipodi-0.dtd"
   xmlns:inkscape="http://www.inkscape.org/namespaces/inkscape"
   width="22"
   height="22"
   viewBox="0 0 22 22"
   version="1.1"
   id="svg2"
   inkscape:version="0.91 r13725"
   sodipodi:docname="ZZT World.svg"
   inkscape:export-filename="C:\Users\wilkie\images\icons\floppy.small.png"
   inkscape:export-xdpi="81.818184"
   inkscape:export-ydpi="81.818184">
  <metadata
     id="metadata14">
    <rdf:RDF>
      <cc:Work
         rdf:about="">
        <dc:format>image/svg+xml</dc:format>
        <dc:type
           rdf:resource="http://purl.org/dc/dcmitype/StillImage" />
        <dc:title>album_collection</dc:title>
      </cc:Work>
    </rdf:RDF>
  </metadata>
  <sodipodi:namedview
     pagecolor="#ffffff"
     bordercolor="#666666"
     borderopacity="1"
     objecttolerance="10"
     gridtolerance="10"
     guidetolerance="10"
     inkscape:pageopacity="0"
     inkscape:pageshadow="2"
     inkscape:window-width="1920"
     inkscape:window-height="1057"
     id="namedview12"
     showgrid="false"
     inkscape:zoom="20.227273"
     inkscape:cx="4.9408204"
     inkscape:cy="10.004841"
     inkscape:window-x="-8"
     inkscape:window-y="1072"
     inkscape:window-maximized="1"
     inkscape:current-layer="g6299" />
  <title
     id="title4">album_collection</title>
  <description
     id="description6">Created with Sketch (http://www.bohemiancoding.com/sketch)</description>
  <defs
     id="defs8" />
  <g
     id="g6299"
     transform="translate(179.67237,-70.223625)">
    <path
       style="opacity:1;fill:#2da0b7;fill-opacity:1;stroke:none;stroke-width:0.40000001;stroke-miterlimit:4;stroke-dasharray:none;stroke-opacity:1"
       d="m -173.71942,72.854496 0,1.66999 -1.66999,0 0,13.434082 1.66999,0 0,1.634187 10.07109,0 0,-1.634187 1.69301,0 0,-13.434082 -1.69301,0 0,-1.669991 -10.07109,0 z m 1.67256,3.362997 1.693,0 0,1.672547 -1.693,0 0,-1.672547 z m 5.03041,0 1.69301,0 0,1.672547 -1.69301,0 0,-1.672547 z m -5.01252,5.009968 6.70553,0 0,1.66999 -1.69301,0 0,1.68022 -3.34253,0 0,-1.68022 -1.66999,0 0,-1.66999 z"
       id="rect8126"
       inkscape:connector-curvature="0" />
  </g>
</svg>
