<?xml version="1.0" encoding="UTF-8" standalone="no"?>
<svg
   xmlns:dc="http://purl.org/dc/elements/1.1/"
   xmlns:cc="http://creativecommons.org/ns#"
   xmlns:rdf="http://www.w3.org/1999/02/22-rdf-syntax-ns#"
   xmlns:svg="http://www.w3.org/2000/svg"
   xmlns="http://www.w3.org/2000/svg"
   xmlns:sodipodi="http://sodipodi.sourceforge.net/DTD/sodipodi-0.dtd"
   xmlns:inkscape="http://www.inkscape.org/namespaces/inkscape"
   version="1.1"
   x="0px"
   y="0px"
   width="100px"
   height="100px"
   viewBox="0 0 100 100"
   enable-background="new 0 0 100 100"
   xml:space="preserve"
   id="svg2"
   inkscape:version="0.92.2 2405546, 2018-03-11"
   sodipodi:docname="text-plain.svg"
   inkscape:export-filename="C:\Users\wilkie\occam\configuration.png"
   inkscape:export-xdpi="18"
   inkscape:export-ydpi="18"><metadata
   id="metadata122"><rdf:RDF><cc:Work
       rdf:about=""><dc:format>image/svg+xml</dc:format><dc:type
         rdf:resource="http://purl.org/dc/dcmitype/StillImage" /><dc:title></dc:title></cc:Work></rdf:RDF></metadata><defs
   id="defs120" /><sodipodi:namedview
   pagecolor="#ffffff"
   bordercolor="#666666"
   borderopacity="1"
   objecttolerance="10"
   gridtolerance="10"
   guidetolerance="10"
   inkscape:pageopacity="0"
   inkscape:pageshadow="2"
   inkscape:window-width="1920"
   inkscape:window-height="1152"
   id="namedview118"
   showgrid="false"
   inkscape:zoom="3.3693638"
   inkscape:cx="-64.685749"
   inkscape:cy="44.322395"
   inkscape:window-x="0"
   inkscape:window-y="20"
   inkscape:window-maximized="1"
   inkscape:current-layer="text5776"
   inkscape:object-nodes="false" />
<path
   style="color:#000000;font-style:normal;font-variant:normal;font-weight:normal;font-stretch:normal;font-size:medium;line-height:normal;font-family:sans-serif;text-indent:0;text-align:start;text-decoration:none;text-decoration-line:none;text-decoration-style:solid;text-decoration-color:#000000;letter-spacing:normal;word-spacing:normal;text-transform:none;writing-mode:lr-tb;direction:ltr;baseline-shift:baseline;text-anchor:start;white-space:normal;clip-rule:nonzero;display:inline;overflow:visible;visibility:visible;opacity:1;isolation:auto;mix-blend-mode:normal;color-interpolation:sRGB;color-interpolation-filters:linearRGB;solid-color:#000000;solid-opacity:1;fill:#2da0b7;fill-opacity:1;fill-rule:nonzero;stroke:none;stroke-width:3.84708214;stroke-linecap:butt;stroke-linejoin:miter;stroke-miterlimit:4;stroke-dasharray:none;stroke-dashoffset:0;stroke-opacity:1;color-rendering:auto;image-rendering:auto;shape-rendering:auto;text-rendering:auto;enable-background:accumulate"
   d="M 32.353516,1.0390625 C 25.446321,7.8584722 18.363873,15.024901 12.439451,20.95117 v 2.054687 h 22.736328 c 0,-7.322265 0,-14.6445297 0,-21.9667945 z m 4.757812,0 v 3.8476563 h 46.601563 c 0.0032,24.7111032 0,65.5166852 0,90.2265622 H 16.287109 c 0,-19.218353 -6.21e-4,-46.849981 0,-70.171875 h -3.847656 v 73.835938 0.183594 h 0.183594 74.753906 0.183594 V 98.777344 1.2226562 1.0390625 H 87.376953 Z M 31.005859,8.3261719 V 18.789062 h -10.46289 z"
   id="rect962-5"
   inkscape:connector-curvature="0"
   sodipodi:nodetypes="ccccccccccccccccccccccccccc" /><g
   aria-label="T"
   style="font-style:normal;font-variant:normal;font-weight:normal;font-stretch:normal;font-size:84.83261871px;line-height:1.25;font-family:inconsolata;-inkscape-font-specification:inconsolata;letter-spacing:0px;word-spacing:0px;fill:#2da0b7;fill-opacity:1;stroke:none;stroke-width:2.12081552"
   id="text5776"><path
     d="M 62.956555,85.626133 C 56.00028,85.286803 54.897456,84.268812 54.812623,77.991198 V 34.64173 h 4.580962 c 9.840584,0.169665 11.622069,1.611819 13.488386,10.858575 h 2.035983 L 74.408958,31.07876 H 26.563361 l -0.508995,14.421545 h 2.035983 c 1.95115,-9.246756 3.732635,-10.68891 13.488386,-10.858575 h 4.580961 v 42.416309 c -0.08483,7.295605 -0.848326,8.143931 -7.974266,8.568094 v 1.61182 h 24.771125 z"
     style="font-style:normal;font-variant:normal;font-weight:normal;font-stretch:normal;font-family:Times;-inkscape-font-specification:Times;fill:#2da0b7;fill-opacity:1;stroke-width:2.12081552"
     id="path5778" /></g></svg>