<?xml version="1.0" encoding="UTF-8" standalone="no"?>
<svg
   xmlns:dc="http://purl.org/dc/elements/1.1/"
   xmlns:cc="http://creativecommons.org/ns#"
   xmlns:rdf="http://www.w3.org/1999/02/22-rdf-syntax-ns#"
   xmlns:svg="http://www.w3.org/2000/svg"
   xmlns="http://www.w3.org/2000/svg"
   xmlns:sodipodi="http://sodipodi.sourceforge.net/DTD/sodipodi-0.dtd"
   xmlns:inkscape="http://www.inkscape.org/namespaces/inkscape"
   version="1.1"
   id="Layer_2"
   x="0px"
   y="0px"
   width="106.66666"
   height="106.66666"
   viewBox="0 0 100 100"
   enable-background="new 0 0 100 100"
   xml:space="preserve"
   inkscape:version="0.92.1 r"
   sodipodi:docname="lock.svg"
   inkscape:export-filename="/home/wilkie/images/ui/public_unlocked_dot.png"
   inkscape:export-xdpi="17.1"
   inkscape:export-ydpi="17.1"><metadata
     id="metadata17"><rdf:RDF><cc:Work
         rdf:about=""><dc:format>image/svg+xml</dc:format><dc:type
           rdf:resource="http://purl.org/dc/dcmitype/StillImage" /><dc:title></dc:title></cc:Work></rdf:RDF></metadata><defs
     id="defs15"><marker
       inkscape:stockid="TriangleInL"
       orient="auto"
       refY="0"
       refX="0"
       id="TriangleInL"
       style="overflow:visible"><path
         id="path3916"
         d="M 5.77,0 -2.88,5 V -5 Z"
         style="fill-rule:evenodd;stroke:#000000;stroke-width:1.00000003pt"
         transform="scale(-0.8)"
         inkscape:connector-curvature="0" /></marker><marker
       inkscape:stockid="Arrow2Lstart"
       orient="auto"
       refY="0"
       refX="0"
       id="Arrow2Lstart"
       style="overflow:visible"><path
         id="path3801"
         style="fill-rule:evenodd;stroke-width:0.625;stroke-linejoin:round"
         d="M 8.7185878,4.0337352 -2.2072895,0.01601326 8.7185884,-4.0017078 c -1.7454984,2.3720609 -1.7354408,5.6174519 -6e-7,8.035443 z"
         transform="matrix(1.1,0,0,1.1,1.1,0)"
         inkscape:connector-curvature="0" /></marker><marker
       inkscape:stockid="Arrow1Lstart"
       orient="auto"
       refY="0"
       refX="0"
       id="Arrow1Lstart"
       style="overflow:visible"><path
         id="path3783"
         d="M 0,0 5,-5 -12.5,0 5,5 Z"
         style="fill-rule:evenodd;stroke:#000000;stroke-width:1.00000003pt"
         transform="matrix(0.8,0,0,0.8,10,0)"
         inkscape:connector-curvature="0" /></marker></defs><sodipodi:namedview
     pagecolor="#ffffff"
     bordercolor="#666666"
     borderopacity="1"
     objecttolerance="10"
     gridtolerance="10"
     guidetolerance="10"
     inkscape:pageopacity="0"
     inkscape:pageshadow="2"
     inkscape:window-width="1920"
     inkscape:window-height="1152"
     id="namedview13"
     showgrid="false"
     inkscape:zoom="4.4531254"
     inkscape:cx="98.435614"
     inkscape:cy="71.471229"
     inkscape:window-x="0"
     inkscape:window-y="20"
     inkscape:window-maximized="1"
     inkscape:current-layer="Layer_2" /><path
     style="color:#000000;display:inline;overflow:visible;visibility:visible;fill:#5fd38d;fill-opacity:1;fill-rule:evenodd;stroke:none;stroke-width:2;marker:none;enable-background:accumulate"
     d="M 50,0.5 C 22.663299,0.5 0.5,22.663299 0.5,50 0.5,77.336701 22.663299,99.5 50,99.5 77.336701,99.5 99.5,77.336701 99.5,50 99.5,22.663299 77.336701,0.5 50,0.5 Z m 0,10.25 C 71.674099,10.75 89.25,28.325901 89.25,50 89.25,71.674099 71.674099,89.25 50,89.25 28.325901,89.25 10.75,71.674099 10.75,50 10.75,28.325901 28.325901,10.75 50,10.75 Z"
     id="path4816"
     inkscape:connector-curvature="0" /><path
     style="color:#000000;display:inline;overflow:visible;visibility:visible;fill:#5fd38d;fill-opacity:1;fill-rule:evenodd;stroke:none;stroke-width:2;marker:none;enable-background:accumulate"
     d="m 32.53125,49.75 c -0.430339,0 -0.78125,0.350911 -0.78125,0.78125 v 5.53125 7.40625 7.96875 c 0,3.4902 2.8223,6.3125 6.3125,6.3125 h 23.875 c 3.4902,0 6.3125,-2.8223 6.3125,-6.3125 V 63.46875 56.0625 50.53125 C 68.25,50.100911 67.899089,49.75 67.46875,49.75 H 61.9375 38.0625 Z"
     id="rect4832"
     inkscape:connector-curvature="0" /><path
     style="color:#000000;display:inline;overflow:visible;visibility:visible;fill:#5fd38d;fill-opacity:1;fill-rule:evenodd;stroke:none;stroke-width:2;marker:none;enable-background:accumulate"
     d="M 43.0625,22.5 C 36.79884,22.5 31.75,27.548837 31.75,33.8125 V 40.5 h 8.5 v -1.4375 c 0,-3.656639 2.93711,-6.59375 6.59375,-6.59375 h 6.3125 c 3.65664,0 6.59375,2.937111 6.59375,6.59375 v 16.125 c 0,0.766397 -0.13691,1.504271 -0.375,2.1875 H 68.25 V 33.8125 C 68.25,27.548837 63.20116,22.5 56.9375,22.5 Z"
     id="rect4832-8"
     inkscape:connector-curvature="0" /><path
     inkscape:connector-curvature="0"
     id="path4960"
     d="m -59.781261,10.984374 c 6.26366,0 11.3125,5.048837 11.3125,11.3125 v 6.6875 h -8.5 v -1.4375 c 0,-3.656639 -2.93711,-6.59375 -6.59375,-6.59375 h -6.3125 c -3.65664,0 -6.59375,2.937111 -6.59375,6.59375 v 16.125 c 0,0.766397 0.13691,1.504271 0.375,2.1875 h -8.875 v -23.5625 c 0,-6.263663 5.04884,-11.3125 11.3125,-11.3125 z"
     style="color:#000000;display:inline;overflow:visible;visibility:visible;fill:#ff6b6b;fill-opacity:1;fill-rule:evenodd;stroke:none;stroke-width:2;marker:none;enable-background:accumulate" /></svg>