<?xml version="1.0" encoding="UTF-8" standalone="no"?>
<svg
   xmlns:dc="http://purl.org/dc/elements/1.1/"
   xmlns:cc="http://creativecommons.org/ns#"
   xmlns:rdf="http://www.w3.org/1999/02/22-rdf-syntax-ns#"
   xmlns:svg="http://www.w3.org/2000/svg"
   xmlns="http://www.w3.org/2000/svg"
   xmlns:sodipodi="http://sodipodi.sourceforge.net/DTD/sodipodi-0.dtd"
   xmlns:inkscape="http://www.inkscape.org/namespaces/inkscape"
   version="1.1"
   id="Layer_2"
   x="0px"
   y="0px"
   width="100px"
   height="100px"
   viewBox="0 0 100 100"
   enable-background="new 0 0 100 100"
   xml:space="preserve"
   inkscape:version="0.91 r13725"
   sodipodi:docname="lock.svg"
   inkscape:export-filename="Z:\projects\occam\UI\public_locked.png"
   inkscape:export-xdpi="17.1"
   inkscape:export-ydpi="17.1"><metadata
     id="metadata17"><rdf:RDF><cc:Work
         rdf:about=""><dc:format>image/svg+xml</dc:format><dc:type
           rdf:resource="http://purl.org/dc/dcmitype/StillImage" /><dc:title /></cc:Work></rdf:RDF></metadata><defs
     id="defs15"><marker
       inkscape:stockid="TriangleInL"
       orient="auto"
       refY="0.0"
       refX="0.0"
       id="TriangleInL"
       style="overflow:visible"><path
         id="path3916"
         d="M 5.77,0.0 L -2.88,5.0 L -2.88,-5.0 L 5.77,0.0 z "
         style="fill-rule:evenodd;stroke:#000000;stroke-width:1.0pt"
         transform="scale(-0.8)" /></marker><marker
       inkscape:stockid="Arrow2Lstart"
       orient="auto"
       refY="0.0"
       refX="0.0"
       id="Arrow2Lstart"
       style="overflow:visible"><path
         id="path3801"
         style="fill-rule:evenodd;stroke-width:0.62500000;stroke-linejoin:round"
         d="M 8.7185878,4.0337352 L -2.2072895,0.016013256 L 8.7185884,-4.0017078 C 6.9730900,-1.6296469 6.9831476,1.6157441 8.7185878,4.0337352 z "
         transform="scale(1.1) translate(1,0)" /></marker><marker
       inkscape:stockid="Arrow1Lstart"
       orient="auto"
       refY="0.0"
       refX="0.0"
       id="Arrow1Lstart"
       style="overflow:visible"><path
         id="path3783"
         d="M 0.0,0.0 L 5.0,-5.0 L -12.5,0.0 L 5.0,5.0 L 0.0,0.0 z "
         style="fill-rule:evenodd;stroke:#000000;stroke-width:1.0pt"
         transform="scale(0.8) translate(12.5,0)" /></marker></defs><sodipodi:namedview
     pagecolor="#ffffff"
     bordercolor="#666666"
     borderopacity="1"
     objecttolerance="10"
     gridtolerance="10"
     guidetolerance="10"
     inkscape:pageopacity="0"
     inkscape:pageshadow="2"
     inkscape:window-width="1680"
     inkscape:window-height="1028"
     id="namedview13"
     showgrid="false"
     inkscape:zoom="2"
     inkscape:cx="74.875696"
     inkscape:cy="48.359398"
     inkscape:window-x="1912"
     inkscape:window-y="10"
     inkscape:window-maximized="1"
     inkscape:current-layer="Layer_2" /><path
     style="color:#000000;fill:#ff6b6b;fill-opacity:1;fill-rule:evenodd;stroke:none;stroke-width:2;marker:none;visibility:visible;display:inline;overflow:visible;enable-background:accumulate"
     d="M 50 0.5 C 22.663299 0.5 0.5 22.663299 0.5 50 C 0.5 77.336701 22.663299 99.5 50 99.5 C 77.336701 99.5 99.5 77.336701 99.5 50 C 99.5 22.663299 77.336701 0.5 50 0.5 z M 50 10.75 C 71.674099 10.75 89.25 28.325901 89.25 50 C 89.25 71.674099 71.674099 89.25 50 89.25 C 28.325901 89.25 10.75 71.674099 10.75 50 C 10.75 28.325901 28.325901 10.75 50 10.75 z "
     id="path4816" /><path
     style="color:#000000;fill:#ff6b6b;fill-opacity:1;fill-rule:evenodd;stroke:none;stroke-width:2;marker:none;visibility:visible;display:inline;overflow:visible;enable-background:accumulate"
     d="m 32.53125,49.75 c -0.430339,0 -0.78125,0.350911 -0.78125,0.78125 l 0,5.53125 0,7.40625 0,7.96875 c 0,3.4902 2.8223,6.3125 6.3125,6.3125 l 23.875,0 c 3.4902,0 6.3125,-2.8223 6.3125,-6.3125 l 0,-7.96875 0,-7.40625 0,-5.53125 C 68.25,50.100911 67.899089,49.75 67.46875,49.75 l -5.53125,0 -23.875,0 -5.53125,0 z"
     id="rect4832"
     inkscape:connector-curvature="0" /><path
     style="color:#000000;fill:#ff6b6b;fill-opacity:1;fill-rule:evenodd;stroke:none;stroke-width:2;marker:none;visibility:visible;display:inline;overflow:visible;enable-background:accumulate"
     d="M 43.0625,22.5 C 36.79884,22.5 31.75,27.548837 31.75,33.8125 l 0,6.6875 8.5,0 0,-1.4375 c 0,-3.656639 2.93711,-6.59375 6.59375,-6.59375 l 6.3125,0 c 3.65664,0 6.59375,2.937111 6.59375,6.59375 l 0,16.125 c 0,0.766397 -0.13691,1.504271 -0.375,2.1875 l 8.875,0 0,-23.5625 C 68.25,27.548837 63.20116,22.5 56.9375,22.5 l -13.875,0 z"
     id="rect4832-8"
     inkscape:connector-curvature="0" /><path
     inkscape:connector-curvature="0"
     id="path4960"
     d="M 56.9375,22 C 63.20116,22 68.25,27.048837 68.25,33.3125 l 0,6.6875 -8.5,0 0,-1.4375 c 0,-3.656639 -2.93711,-6.59375 -6.59375,-6.59375 l -6.3125,0 c -3.65664,0 -6.59375,2.937111 -6.59375,6.59375 l 0,16.125 c 0,0.766397 0.13691,1.504271 0.375,2.1875 l -8.875,0 0,-23.5625 C 31.75,27.048837 36.79884,22 43.0625,22 l 13.875,0 z"
     style="color:#000000;fill:#ff6b6b;fill-opacity:1;fill-rule:evenodd;stroke:none;stroke-width:2;marker:none;visibility:visible;display:inline;overflow:visible;enable-background:accumulate" /></svg>