<?xml version="1.0" encoding="UTF-8" standalone="no"?>
<svg
   xmlns:dc="http://purl.org/dc/elements/1.1/"
   xmlns:cc="http://creativecommons.org/ns#"
   xmlns:rdf="http://www.w3.org/1999/02/22-rdf-syntax-ns#"
   xmlns:svg="http://www.w3.org/2000/svg"
   xmlns="http://www.w3.org/2000/svg"
   xmlns:sodipodi="http://sodipodi.sourceforge.net/DTD/sodipodi-0.dtd"
   xmlns:inkscape="http://www.inkscape.org/namespaces/inkscape"
   width="22"
   height="22"
   viewBox="0 0 22 22"
   version="1.1"
   id="svg2"
   inkscape:version="0.91 r13725"
   sodipodi:docname="build.svg"
   inkscape:export-filename="Z:\projects\occam\Large-Icons\group_large.png"
   inkscape:export-xdpi="392.72726"
   inkscape:export-ydpi="392.72726">
  <metadata
     id="metadata14">
    <rdf:RDF>
      <cc:Work
         rdf:about="">
        <dc:format>image/svg+xml</dc:format>
        <dc:type
           rdf:resource="http://purl.org/dc/dcmitype/StillImage" />
        <dc:title>album_collection</dc:title>
      </cc:Work>
    </rdf:RDF>
  </metadata>
  <sodipodi:namedview
     pagecolor="#ffffff"
     bordercolor="#666666"
     borderopacity="1"
     objecttolerance="10"
     gridtolerance="10"
     guidetolerance="10"
     inkscape:pageopacity="0"
     inkscape:pageshadow="2"
     inkscape:window-width="2560"
     inkscape:window-height="1417"
     id="namedview12"
     showgrid="false"
     inkscape:zoom="28.409091"
     inkscape:cx="-1.7435645"
     inkscape:cy="9.7263631"
     inkscape:window-x="1912"
     inkscape:window-y="-8"
     inkscape:window-maximized="1"
     inkscape:current-layer="g6299" />
  <title
     id="title4">album_collection</title>
  <description
     id="description6">Created with Sketch (http://www.bohemiancoding.com/sketch)</description>
  <defs
     id="defs8" />
  <g
     id="g6299"
     transform="translate(179.67237,-70.223625)">
    <path
       style="opacity:1;fill:#6aa3ae;fill-opacity:1;stroke:none"
       d="m -178.23679,85.370442 0,2.228145 0,0.770499 0,3.589441 2.99661,0 0,-3.589441 1.29704,0 1.76056,0 3.05556,0 0,-2.998644 -3.05556,0 -1.76056,0 z"
       id="rect4177"
       inkscape:connector-curvature="0"
       sodipodi:nodetypes="ccccccccccccc" />
    <path
       style="opacity:1;fill:#6aa3ae;fill-opacity:1;stroke:none"
       d="m -174.64735,88.961913 0,2.996612 3.0576,0 0.95143,0 2.04518,0 3.05557,0 3.0576,0 0,-2.996612 -3.0576,0 -3.05557,0 -2.04518,0 -0.95143,0 -3.0576,0 z"
       id="rect4181"
       inkscape:connector-curvature="0" />
    <path
       style="opacity:1;fill:#6aa3ae;fill-opacity:1;stroke:none"
       d="m -164.94475,81.781001 0,4.101751 0,2.486334 2.99865,0 0.0589,0 0,3.589441 2.99662,0 0,-3.589441 0,-0.74407 0,-2.254574 -3.05557,0 0,-3.589441 -2.99865,0 z"
       id="rect4189"
       inkscape:connector-curvature="0"
       sodipodi:nodetypes="cccccccccccccc" />
    <path
       style="opacity:1;fill:#6aa3ae;fill-opacity:1;stroke:none"
       d="m -171.58975,78.7234 0,3.775243 0,2.27897 3.05557,0 0,3.591473 2.99661,0 0,-3.591473 0,-0.691213 0,-2.305399 -2.096,0 -0.95958,0 0,-3.057601 z"
       id="rect4201"
       inkscape:connector-curvature="0"
       sodipodi:nodetypes="ccccccccccccc" />
    <rect
       style="opacity:1;fill:#6aa3ae;fill-opacity:1;stroke:none"
       id="rect4245"
       width="2.9975138"
       height="2.9975138"
       x="-178.25252"
       y="73.507523" />
    <rect
       y="73.507523"
       x="-175.19633"
       height="2.9975138"
       width="2.9975138"
       id="rect4247"
       style="opacity:1;fill:#6aa3ae;fill-opacity:1;stroke:none" />
    <rect
       y="77.746643"
       x="-161.68915"
       height="2.9975138"
       width="2.9975138"
       id="rect4255"
       style="opacity:1;fill:#6aa3ae;fill-opacity:1;stroke:none" />
    <rect
       y="70.451164"
       x="-178.25252"
       height="2.9975138"
       width="2.9975138"
       id="rect4257"
       style="opacity:1;fill:#6aa3ae;fill-opacity:1;stroke:none" />
    <rect
       style="opacity:1;fill:#6aa3ae;fill-opacity:1;stroke:none"
       id="rect4259"
       width="2.9975138"
       height="2.9975138"
       x="-175.19633"
       y="70.451164" />
    <rect
       style="opacity:1;fill:#6aa3ae;fill-opacity:1;stroke:none"
       id="rect4263"
       width="2.9975138"
       height="2.9975138"
       x="-167.80151"
       y="74.690292" />
    <rect
       y="74.690292"
       x="-164.74535"
       height="2.9975138"
       width="2.9975138"
       id="rect4265"
       style="opacity:1;fill:#6aa3ae;fill-opacity:1;stroke:none" />
    <rect
       style="opacity:1;fill:#6aa3ae;fill-opacity:1;stroke:none"
       id="rect4267"
       width="2.9975138"
       height="2.9975138"
       x="-161.68915"
       y="74.690292" />
  </g>
</svg>
